<?xml version="1.0" encoding="UTF-8"?>
<svg xmlns="http://www.w3.org/2000/svg" xmlns:xlink="http://www.w3.org/1999/xlink" width="783.612" height="737.460022" viewBox="0 0 783.612 737.460022">
<path fill="none" stroke-width="0.176" stroke-linecap="butt" stroke-linejoin="miter" stroke="rgb(13.725491%, 12.156863%, 12.54902%)" stroke-opacity="1" stroke-miterlimit="10" d="M 9.45809 39.554249 L 103.578102 39.554249 L 103.578102 0.670245 L 9.457056 0.670245 Z M 17.118102 38.784785 L 17.118102 39.554249 M 21.59794 38.784785 L 21.59794 39.554249 M 24.77708 38.784785 L 24.77708 39.554249 M 27.243084 38.784785 L 27.243084 39.554249 M 29.257952 38.784785 L 29.257952 39.554249 M 30.96121 38.784785 L 30.96121 39.554249 M 32.437092 38.784785 L 32.437092 39.554249 M 33.73779 38.784785 L 33.73779 39.554249 M 34.903096 38.015838 L 34.903096 39.554249 M 42.562074 38.784785 L 42.562074 39.554249 M 47.042946 38.784785 L 47.042946 39.554249 M 50.222086 38.784785 L 50.222086 39.554249 M 52.68809 38.784785 L 52.68809 39.554249 M 54.701924 38.784785 L 54.701924 39.554249 M 56.405183 38.784785 L 56.405183 39.554249 M 57.881065 38.784785 L 57.881065 39.554249 M 59.18383 38.784785 L 59.18383 39.554249 M 60.348102 38.015838 L 60.348102 39.554249 M 68.00708 38.784785 L 68.00708 39.554249 M 72.486919 38.784785 L 72.486919 39.554249 M 75.666059 38.784785 L 75.666059 39.554249 M 78.133096 38.784785 L 78.133096 39.554249 M 80.147964 38.784785 L 80.147964 39.554249 M 81.851222 38.784785 L 81.851222 39.554249 M 83.327104 38.784785 L 83.327104 39.554249 M 84.627802 38.784785 L 84.627802 39.554249 M 85.792075 38.015838 L 85.792075 39.554249 M 93.451053 38.784785 L 93.451053 39.554249 M 97.932958 38.784785 L 97.932958 39.554249 M 101.112098 38.784785 L 101.112098 39.554249 M 17.118102 0.670245 L 17.118102 1.440225 M 21.59794 0.670245 L 21.59794 1.440225 M 24.77708 0.670245 L 24.77708 1.440225 M 27.243084 0.670245 L 27.243084 1.440225 M 29.257952 0.670245 L 29.257952 1.440225 M 30.96121 0.670245 L 30.96121 1.440225 M 32.437092 0.670245 L 32.437092 1.440225 M 33.73779 0.670245 L 33.73779 1.440225 M 34.903096 0.670245 L 34.903096 2.210205 M 42.562074 0.670245 L 42.562074 1.440225 M 47.042946 0.670245 L 47.042946 1.440225 M 50.222086 0.670245 L 50.222086 1.440225 M 52.68809 0.670245 L 52.68809 1.440225 M 54.701924 0.670245 L 54.701924 1.440225 M 56.405183 0.670245 L 56.405183 1.440225 M 57.881065 0.670245 L 57.881065 1.440225 M 59.18383 0.670245 L 59.18383 1.440225 M 60.348102 0.670245 L 60.348102 2.210205 M 68.00708 0.670245 L 68.00708 1.440225 M 72.486919 0.670245 L 72.486919 1.440225 M 75.666059 0.670245 L 75.666059 1.440225 M 78.133096 0.670245 L 78.133096 1.440225 M 80.147964 0.670245 L 80.147964 1.440225 M 81.851222 0.670245 L 81.851222 1.440225 M 83.327104 0.670245 L 83.327104 1.440225 M 84.627802 0.670245 L 84.627802 1.440225 M 85.792075 0.670245 L 85.792075 2.210205 M 93.451053 0.670245 L 93.451053 1.440225 M 97.932958 0.670245 L 97.932958 1.440225 M 101.112098 0.670245 L 101.112098 1.440225 M 10.245124 35.665073 L 9.460157 35.665073 M 11.032157 31.776931 L 9.45809 31.776931 M 10.245124 27.887756 L 9.460157 27.887756 M 11.032157 24.00013 L 9.45809 24.00013 M 10.245124 20.111988 L 9.460157 20.111988 M 11.032157 16.222813 L 9.45809 16.222813 M 10.245124 12.336221 L 9.460157 12.336221 M 11.032157 8.447045 L 9.45809 8.447045 M 10.245124 4.55787 L 9.460157 4.55787 " transform="matrix(7.559041, 0, 0, 7.559041, 0.00200341, 0)"/>
<path fill-rule="nonzero" fill="rgb(13.725491%, 12.156863%, 12.54902%)" fill-opacity="1" d="M 59.203125 292.664062 C 56.746094 292.664062 54.992188 294.914062 54.992188 298.953125 C 55.039062 302.996094 56.65625 305.203125 59 305.203125 C 61.707031 305.203125 63.25 302.914062 63.25 298.785156 C 63.25 294.953125 61.789062 292.664062 59.203125 292.664062 M 59.121094 293.910156 C 60.828125 293.910156 61.578125 295.875 61.578125 298.871094 C 61.578125 301.953125 60.785156 303.910156 59.121094 303.910156 C 57.617188 303.910156 56.664062 302.121094 56.664062 298.996094 C 56.664062 295.664062 57.699219 293.910156 59.121094 293.910156 M 62.410156 235.320312 L 56.621094 235.320312 L 55.824219 241.15625 C 56.285156 241.074219 56.832031 240.988281 57.488281 240.988281 C 59.90625 240.988281 60.949219 242.117188 60.996094 243.695312 C 60.996094 245.320312 59.664062 246.320312 58.125 246.320312 C 57.21875 246.320312 56.328125 246.09375 55.539062 245.652344 L 55.121094 246.910156 C 55.703125 247.285156 56.832031 247.65625 58.125 247.65625 C 60.785156 247.65625 62.660156 245.867188 62.660156 243.492188 C 62.683594 242.222656 62.015625 241.039062 60.914062 240.40625 C 60.113281 239.953125 59.207031 239.722656 58.289062 239.742188 C 57.96875 239.746094 57.648438 239.773438 57.328125 239.816406 L 57.785156 236.695312 L 62.410156 236.695312 Z M 62.410156 235.320312 "/>
<path fill-rule="nonzero" fill="rgb(13.725491%, 12.156863%, 12.54902%)" fill-opacity="1" d="M 49.164062 187.457031 L 50.753906 187.457031 L 50.753906 175.324219 L 49.339844 175.324219 L 46.710938 176.746094 L 47.003906 177.992188 L 49.121094 176.867188 L 49.164062 176.867188 Z M 59.203125 175.121094 C 56.746094 175.121094 54.992188 177.371094 54.992188 181.410156 C 55.039062 185.453125 56.65625 187.660156 59 187.660156 C 61.707031 187.660156 63.25 185.371094 63.25 181.242188 C 63.25 177.410156 61.789062 175.121094 59.203125 175.121094 M 59.121094 176.367188 C 60.828125 176.367188 61.578125 178.332031 61.578125 181.328125 C 61.578125 184.410156 60.785156 186.367188 59.121094 186.367188 C 57.617188 186.367188 56.664062 184.578125 56.664062 181.453125 C 56.664062 178.121094 57.699219 176.367188 59.121094 176.367188 M 59.121094 176.367188 "/>
<path fill-rule="nonzero" fill="rgb(13.725491%, 12.156863%, 12.54902%)" fill-opacity="1" d="M 49.164062 129.902344 L 50.753906 129.902344 L 50.753906 117.777344 L 49.339844 117.777344 L 46.710938 119.199219 L 47.003906 120.445312 L 49.121094 119.320312 L 49.164062 119.320312 Z M 62.410156 117.777344 L 56.621094 117.777344 L 55.824219 123.613281 C 56.285156 123.53125 56.832031 123.445312 57.488281 123.445312 C 59.90625 123.445312 60.949219 124.574219 60.996094 126.152344 C 60.996094 127.777344 59.664062 128.777344 58.125 128.777344 C 57.21875 128.777344 56.328125 128.550781 55.539062 128.109375 L 55.121094 129.367188 C 55.703125 129.742188 56.832031 130.113281 58.125 130.113281 C 60.785156 130.113281 62.660156 128.324219 62.660156 125.949219 C 62.683594 124.679688 62.015625 123.496094 60.914062 122.863281 C 60.117188 122.40625 59.207031 122.175781 58.289062 122.191406 C 57.96875 122.199219 57.648438 122.226562 57.328125 122.273438 L 57.785156 119.152344 L 62.410156 119.152344 Z M 62.410156 117.777344 "/>
<path fill-rule="nonzero" fill="rgb(13.725491%, 12.156863%, 12.54902%)" fill-opacity="1" d="M 53.339844 69.90625 L 53.339844 68.539062 L 47.882812 68.539062 L 47.882812 68.484375 L 48.878906 67.609375 C 51.417969 65.152344 53.042969 63.320312 53.042969 61.105469 C 53.042969 59.359375 51.917969 57.570312 49.339844 57.570312 C 48.078125 57.546875 46.851562 57.976562 45.878906 58.777344 L 46.421875 59.941406 C 47.140625 59.320312 48.050781 58.96875 49 58.945312 C 50.792969 58.945312 51.378906 60.070312 51.378906 61.273438 C 51.378906 63.109375 49.960938 64.691406 46.875 67.652344 L 45.589844 68.902344 L 45.589844 69.898438 Z M 59.203125 57.578125 C 56.746094 57.578125 54.992188 59.820312 54.992188 63.867188 C 55.039062 67.910156 56.65625 70.117188 59 70.117188 C 61.707031 70.117188 63.25 67.828125 63.25 63.699219 C 63.25 59.867188 61.789062 57.578125 59.203125 57.578125 M 59.121094 58.824219 C 60.828125 58.824219 61.578125 60.789062 61.578125 63.78125 C 61.578125 66.867188 60.785156 68.824219 59.121094 68.824219 C 57.617188 68.824219 56.664062 67.035156 56.664062 63.910156 C 56.664062 60.578125 57.699219 58.824219 59.121094 58.824219 M 59.121094 58.824219 "/>
<path fill-rule="nonzero" fill="rgb(13.725491%, 12.156863%, 12.54902%)" fill-opacity="1" d="M 53.339844 12.335938 L 53.339844 10.960938 L 47.882812 10.960938 L 47.882812 10.914062 L 48.878906 10.039062 C 51.417969 7.582031 53.042969 5.753906 53.042969 3.539062 C 53.042969 1.792969 51.917969 0 49.339844 0 C 48.078125 -0.0234375 46.851562 0.40625 45.878906 1.210938 L 46.421875 2.375 C 47.140625 1.75 48.050781 1.398438 49 1.375 C 50.792969 1.375 51.378906 2.503906 51.378906 3.710938 C 51.378906 5.539062 49.960938 7.128906 46.875 10.082031 L 45.589844 11.332031 L 45.589844 12.335938 Z M 62.410156 0.210938 L 56.621094 0.210938 L 55.824219 6.039062 C 56.285156 5.964844 56.832031 5.875 57.496094 5.875 C 59.914062 5.875 60.949219 7 60.996094 8.585938 C 60.996094 10.203125 59.664062 11.210938 58.125 11.210938 C 57.21875 11.214844 56.328125 10.984375 55.539062 10.542969 L 55.121094 11.792969 C 55.703125 12.171875 56.832031 12.546875 58.125 12.546875 C 60.785156 12.546875 62.660156 10.75 62.660156 8.375 C 62.683594 7.105469 62.015625 5.921875 60.914062 5.292969 C 60.113281 4.835938 59.207031 4.605469 58.289062 4.625 C 57.96875 4.632812 57.648438 4.65625 57.328125 4.703125 L 57.785156 1.578125 L 62.410156 1.578125 Z M 62.410156 0.210938 "/>
<path fill-rule="nonzero" fill="rgb(13.725491%, 12.156863%, 12.54902%)" fill-opacity="1" d="M 15.164062 240.582031 L 15.164062 231.625 L 12.421875 231.625 L 12.421875 237.332031 L 0.796875 237.332031 L 0.796875 240.582031 Z M 15.164062 226.558594 L 4.75 226.558594 L 4.75 229.808594 L 15.164062 229.808594 Z M 0.214844 228.183594 C 0.214844 229.226562 0.878906 229.894531 1.839844 229.894531 C 2.746094 229.894531 3.464844 229.226562 3.464844 228.183594 C 3.464844 227.140625 2.753906 226.429688 1.839844 226.429688 C 0.878906 226.476562 0.214844 227.140625 0.214844 228.183594 M 4.75 216.792969 L 5.957031 216.921875 L 5.957031 216.960938 C 5 217.574219 4.441406 218.65625 4.5 219.792969 C 4.5 222.378906 6.625 224.550781 10.003906 224.550781 C 13.003906 224.550781 15.082031 222.710938 15.082031 220.125 C 15.128906 219.023438 14.609375 217.972656 13.707031 217.335938 L 13.707031 217.292969 L 14.417969 217.292969 C 16.335938 217.292969 17.167969 218.464844 17.167969 220.007812 C 17.167969 221.214844 16.753906 222.335938 16.375 223.007812 L 18.832031 223.671875 C 19.339844 222.710938 19.625 221.253906 19.625 219.878906 C 19.625 218.378906 19.339844 216.792969 18.339844 215.675781 C 17.296875 214.464844 15.671875 214.085938 13.667969 214.085938 L 7.832031 214.085938 C 6.246094 214.085938 5.414062 214.050781 4.75 214.003906 Z M 10.5 217.335938 C 10.796875 217.335938 11.128906 217.335938 11.378906 217.421875 C 12.125 217.632812 12.707031 218.296875 12.707031 219.128906 C 12.707031 220.503906 11.460938 221.253906 9.910156 221.253906 C 8 221.253906 6.964844 220.292969 6.964844 219.128906 C 6.964844 218.253906 7.546875 217.632812 8.378906 217.382812 C 8.542969 217.347656 8.753906 217.332031 9.003906 217.335938 Z M 15.164062 211.480469 L 15.164062 208.230469 L 9.003906 208.230469 C 8.746094 208.230469 8.492188 208.191406 8.25 208.109375 C 7.558594 207.871094 7.105469 207.210938 7.128906 206.484375 C 7.128906 205.273438 8.082031 204.820312 9.421875 204.820312 L 15.164062 204.820312 L 15.164062 201.570312 L 9.089844 201.570312 C 5.914062 201.570312 4.5 203.148438 4.5 205.234375 C 4.535156 206.386719 5.066406 207.464844 5.957031 208.191406 L 5.957031 208.230469 L 0.00390625 208.230469 L 0.00390625 211.480469 Z M 15.164062 211.480469 "/>
<path fill-rule="nonzero" fill="rgb(13.725491%, 12.156863%, 12.54902%)" fill-opacity="1" d="M 2.457031 198.652344 L 4.75 198.652344 L 4.75 200.027344 L 7.128906 200.027344 L 7.128906 198.652344 L 11.378906 198.652344 C 12.875 198.652344 13.871094 198.355469 14.5 197.773438 C 15.085938 197.09375 15.398438 196.21875 15.378906 195.316406 C 15.40625 194.597656 15.304688 193.878906 15.082031 193.195312 L 12.664062 193.230469 C 12.714844 193.550781 12.746094 193.871094 12.753906 194.191406 C 12.753906 195.191406 12.171875 195.484375 10.917969 195.484375 L 7.128906 195.484375 L 7.128906 193.148438 L 4.75 193.148438 L 4.75 195.484375 L 1.753906 195.484375 Z M 4.75 188.136719 L 14.25 184.304688 C 14.546875 184.175781 14.703125 184.175781 14.796875 184.175781 C 14.960938 184.171875 15.128906 184.226562 15.292969 184.34375 C 15.792969 184.636719 16.335938 185.171875 16.578125 185.679688 C 16.855469 186.109375 17.039062 186.589844 17.125 187.09375 L 19.875 186.390625 C 19.714844 185.234375 19.226562 184.144531 18.460938 183.261719 C 17.417969 182.097656 15.753906 181.09375 11.582031 179.59375 L 4.75 177.175781 L 4.75 180.636719 L 9.875 181.921875 C 10.464844 182.097656 11.25 182.261719 11.792969 182.382812 L 11.792969 182.46875 C 11.152344 182.621094 10.511719 182.792969 9.875 182.972656 L 4.75 184.507812 Z M 15.164062 172.566406 L 4.75 172.566406 L 4.75 175.816406 L 15.164062 175.816406 Z M 0.214844 174.191406 C 0.214844 175.234375 0.878906 175.898438 1.839844 175.898438 C 2.746094 175.898438 3.464844 175.234375 3.464844 174.191406 C 3.464844 173.148438 2.753906 172.4375 1.839844 172.4375 C 0.878906 172.480469 0.214844 173.148438 0.214844 174.191406 M 11 160.757812 C 10.578125 160.679688 10.144531 160.640625 9.714844 160.636719 C 7.128906 160.636719 4.5 161.921875 4.5 165.300781 C 4.5 168.929688 7.417969 170.554688 10.085938 170.554688 C 13.335938 170.554688 15.378906 168.515625 15.378906 164.960938 C 15.378906 163.59375 15.164062 162.261719 14.75 161.21875 L 12.542969 161.636719 C 12.835938 162.511719 12.957031 163.425781 12.957031 164.507812 C 12.957031 166.050781 12.339844 167.34375 11 167.46875 Z M 8.753906 167.46875 C 7.878906 167.386719 6.667969 166.84375 6.667969 165.46875 C 6.667969 163.972656 7.953125 163.636719 8.753906 163.636719 Z M 15.164062 158.703125 L 15.164062 155.453125 L 0.00390625 155.453125 L 0.00390625 158.703125 Z M 0.00390625 145.964844 L 5.671875 145.964844 L 5.671875 146.003906 C 4.960938 146.457031 4.5 147.460938 4.5 148.753906 C 4.5 151.25 6.539062 153.464844 10.039062 153.417969 C 13.289062 153.417969 15.414062 151.421875 15.414062 148.957031 C 15.441406 147.632812 14.757812 146.394531 13.625 145.707031 L 13.625 145.671875 L 15.164062 145.503906 L 15.164062 142.632812 C 14.460938 142.667969 13.207031 142.707031 12.042969 142.707031 L 0.00390625 142.707031 Z M 10.507812 145.964844 C 10.796875 145.964844 11.039062 145.964844 11.25 146.039062 C 12.171875 146.253906 12.835938 146.960938 12.835938 147.921875 C 12.835938 149.253906 11.703125 150.128906 9.964844 150.128906 C 8.292969 150.128906 6.964844 149.375 6.964844 147.878906 C 6.964844 146.878906 7.710938 146.214844 8.582031 146.003906 C 8.753906 145.964844 9.003906 145.964844 9.171875 145.964844 Z M 0.417969 133.394531 C 2.082031 134.566406 4.914062 135.8125 9.042969 135.8125 C 13.167969 135.8125 15.996094 134.566406 17.628906 133.394531 L 17.628906 131.148438 C 15.664062 132.3125 12.835938 133.265625 9.089844 133.265625 C 5.253906 133.265625 2.375 132.359375 0.417969 131.148438 Z M 19.375 129.109375 L 19.375 125.859375 L 14.214844 125.859375 L 14.214844 125.820312 C 14.878906 125.367188 15.421875 124.363281 15.421875 123.113281 C 15.421875 120.777344 13.625 118.367188 9.789062 118.367188 C 6.503906 118.367188 4.5 120.40625 4.5 122.699219 C 4.5 124.242188 5.082031 125.40625 6.164062 126.199219 L 6.164062 126.242188 L 4.75 126.363281 L 4.75 129.199219 C 5.710938 129.148438 6.878906 129.121094 8.25 129.117188 Z M 9.246094 125.859375 C 9.054688 125.851562 8.859375 125.824219 8.671875 125.78125 C 7.746094 125.605469 7.066406 124.804688 7.046875 123.863281 C 7.046875 122.402344 8.292969 121.65625 9.957031 121.65625 C 11.75 121.65625 12.921875 122.488281 12.921875 123.90625 C 12.921875 124.824219 12.253906 125.570312 11.378906 125.78125 C 11.144531 125.835938 10.90625 125.859375 10.667969 125.859375 Z M 15.164062 116.355469 L 15.164062 113.105469 L 9.003906 113.105469 C 8.746094 113.109375 8.492188 113.066406 8.25 112.984375 C 7.558594 112.746094 7.105469 112.089844 7.128906 111.359375 C 7.128906 110.148438 8.082031 109.695312 9.421875 109.695312 L 15.164062 109.695312 L 15.164062 106.445312 L 9.089844 106.445312 C 5.914062 106.445312 4.5 108.027344 4.5 110.105469 C 4.535156 111.253906 5.066406 112.335938 5.957031 113.0625 L 5.957031 113.105469 L 0.00390625 113.105469 L 0.00390625 116.355469 Z M 16.003906 102.652344 L 0.546875 98.109375 L 0.546875 100.226562 L 16.003906 104.8125 Z M 0.00390625 93.542969 L 0.00390625 96.792969 L 15.164062 96.792969 L 15.164062 93.542969 L 11.914062 93.542969 L 10.878906 92.710938 L 15.164062 90.21875 L 15.164062 86.210938 L 8.96875 90.460938 L 4.75 86.753906 L 4.75 90.625 L 7.878906 92.757812 L 9.125 93.503906 L 9.125 93.542969 Z M 0.00390625 93.542969 "/>
<path fill-rule="nonzero" fill="rgb(13.725491%, 12.156863%, 12.54902%)" fill-opacity="1" d="M 11 76.324219 C 10.75 76.285156 10.253906 76.203125 9.714844 76.203125 C 7.128906 76.203125 4.5 77.488281 4.5 80.867188 C 4.5 84.496094 7.417969 86.113281 10.085938 86.113281 C 13.335938 86.113281 15.378906 84.070312 15.378906 80.535156 C 15.378906 79.160156 15.164062 77.828125 14.75 76.785156 L 12.542969 77.199219 C 12.835938 78.078125 12.957031 78.992188 12.957031 80.074219 C 12.957031 81.613281 12.339844 82.90625 11 83.035156 Z M 8.753906 83.035156 C 7.878906 82.953125 6.667969 82.410156 6.667969 81.03125 C 6.667969 79.535156 7.953125 79.195312 8.753906 79.195312 Z M 15.164062 66.972656 L 0.796875 62.113281 L 0.796875 65.566406 L 6.917969 67.402344 C 8.589844 67.90625 10.285156 68.351562 12 68.734375 L 12 68.78125 C 10.273438 69.121094 8.5625 69.550781 6.878906 70.066406 L 0.796875 71.8125 L 0.796875 75.355469 L 15.164062 70.769531 Z M 15.164062 66.972656 "/>
<path fill-rule="nonzero" fill="rgb(13.725491%, 12.156863%, 12.54902%)" fill-opacity="1" d="M 17.628906 58.378906 C 15.964844 57.246094 13.167969 55.960938 9.042969 55.914062 C 4.878906 55.914062 2.089844 57.253906 0.425781 58.378906 L 0.425781 60.625 C 2.421875 59.414062 5.253906 58.460938 9.042969 58.460938 C 12.792969 58.460938 15.671875 59.460938 17.628906 60.625 Z M 17.628906 58.378906 "/>
<path fill="none" stroke-width="0.204" stroke-linecap="butt" stroke-linejoin="miter" stroke="rgb(83.92157%, 26.274511%, 29.803923%)" stroke-opacity="1" stroke-miterlimit="10" d="M 46.557187 30.843136 L 44.576942 30.843136 M 44.577976 31.167148 L 44.577976 30.519124 M 47.530256 30.843136 L 49.057814 30.843136 M 49.057814 31.167148 L 49.057814 30.519124 M 47.042946 30.357894 L 47.042946 29.288189 M 46.719968 29.289223 L 47.366958 29.289223 M 47.042946 31.329929 L 47.042946 32.399116 M 46.719968 32.399116 L 47.366958 32.399116 M 49.349786 30.194079 L 47.625857 30.194079 M 47.625857 30.520158 L 47.625857 29.870067 M 50.320788 30.194079 L 51.675747 30.194079 M 51.675747 30.520158 L 51.675747 29.870067 M 49.836063 29.708836 L 49.836063 28.639132 M 49.513084 28.640166 L 50.160074 28.640166 M 49.836063 30.679838 L 49.836063 31.750059 M 49.513084 31.750059 L 50.160074 31.750059 M 52.201814 29.909858 L 50.762106 29.909858 M 50.761072 30.23387 L 50.761072 29.585846 M 53.17385 29.909858 L 54.326753 29.909858 M 54.326753 30.23387 L 54.326753 29.585846 M 52.68809 29.425132 L 52.68809 28.509941 M 52.364078 28.509941 L 53.011068 28.509941 M 52.68809 30.396134 L 52.68809 31.309775 M 52.364078 31.309775 L 53.011068 31.309775 M 55.101901 27.733243 L 53.741775 27.733243 M 53.740224 28.057255 L 53.740224 27.409231 M 56.072903 27.733243 L 57.168962 27.733243 M 57.168962 28.057255 L 57.168962 27.409231 M 55.587143 27.248 L 55.587143 26.799965 M 55.263132 26.799965 L 55.911155 26.799965 M 55.587143 28.220036 L 55.587143 28.666004 M 55.263132 28.666004 L 55.911155 28.666004 M 57.934808 25.867203 L 56.562796 25.867203 M 56.562796 26.190182 L 56.562796 25.543191 M 58.906844 25.867203 L 60.010138 25.867203 M 60.010138 26.190182 L 60.010138 25.543191 M 58.422118 25.379894 L 58.422118 24.777862 M 58.096039 24.777862 L 58.74613 24.777862 M 58.422118 26.351929 L 58.422118 26.954994 M 58.096039 26.954994 L 58.74613 26.954994 M 60.610102 25.555077 L 59.304753 25.555077 M 59.304753 25.880122 L 59.304753 25.232099 M 61.581104 25.555077 L 62.635822 25.555077 M 62.635822 25.880122 L 62.635822 25.232099 M 61.094828 25.068801 L 61.094828 24.466769 M 60.770816 24.466769 L 61.41884 24.466769 M 61.094828 26.04187 L 61.094828 26.643901 M 60.770816 26.643901 L 61.41884 26.643901 M 64.193869 25.400047 L 63.664185 25.400047 M 63.664185 25.724059 L 63.664185 25.076036 M 65.165905 25.400047 L 65.608773 25.400047 M 65.609806 25.724059 L 65.609806 25.076036 M 64.680145 24.913255 L 64.680145 24.466769 M 64.3551 24.466769 L 65.005191 24.466769 M 64.680145 25.885807 L 64.680145 26.332809 M 64.3551 26.332809 L 65.005191 26.332809 M 78.726859 13.246761 L 77.291802 13.246761 M 77.291802 13.570256 L 77.291802 12.92275 M 79.699929 13.246761 L 80.850248 13.246761 M 80.850248 13.570256 L 80.850248 12.92275 M 79.213136 12.762036 L 79.213136 12.001874 M 78.890157 12.001874 L 79.537147 12.001874 M 79.213136 13.733038 L 79.213136 14.491132 M 78.890157 14.491132 L 79.537147 14.491132 M 46.525147 30.843136 C 46.525147 30.153255 47.560745 30.153255 47.560745 30.843136 C 47.560745 31.535085 46.525147 31.535085 46.525147 30.843136 Z M 49.317747 30.195113 C 49.317747 29.503164 50.354895 29.503164 50.354895 30.195113 C 50.354895 30.884994 49.317747 30.884994 49.317747 30.195113 Z M 52.169258 29.909858 C 52.169258 29.219976 53.205889 29.219976 53.205889 29.909858 C 53.205889 30.601807 52.169258 30.601807 52.169258 29.909858 Z M 55.068828 27.733243 C 55.068828 27.042844 56.104942 27.042844 56.104942 27.733243 C 56.104942 28.424158 55.068828 28.424158 55.068828 27.733243 Z M 57.902252 25.867203 C 57.902252 25.175255 58.939917 25.175255 58.939917 25.867203 C 58.939917 26.557085 57.902252 26.557085 57.902252 25.867203 Z M 60.577029 25.555077 C 60.577029 24.865195 61.613143 24.865195 61.613143 25.555077 C 61.613143 26.247026 60.577029 26.247026 60.577029 25.555077 Z M 64.160796 25.400047 C 64.160796 24.710166 65.198978 24.710166 65.198978 25.400047 C 65.198978 26.090963 64.160796 26.090963 64.160796 25.400047 Z M 78.69482 13.246761 C 78.69482 12.55688 79.731968 12.55688 79.731968 13.246761 C 79.731968 13.939227 78.69482 13.939227 78.69482 13.246761 Z M 78.69482 13.246761 " transform="matrix(7.559041, 0, 0, 7.559041, 0.00200341, 0)"/>
<path fill="none" stroke-width="0.204" stroke-linecap="butt" stroke-linejoin="miter" stroke="rgb(23.529412%, 29.803923%, 65.882355%)" stroke-opacity="1" stroke-miterlimit="10" d="M 35.407976 31.910257 L 34.275743 31.910257 M 34.274193 32.234785 L 34.274193 31.586761 M 35.990887 31.910257 L 36.960855 31.910257 M 36.960855 32.234785 L 36.960855 31.586761 M 35.699948 31.42398 L 35.699948 30.045251 M 35.374903 30.045251 L 36.022926 30.045251 M 35.699948 32.397049 L 35.699948 33.776813 M 35.374903 33.776813 L 36.022926 33.776813 M 41.819999 31.465838 L 41.58022 31.465838 M 41.58022 31.78985 L 41.58022 31.141827 M 42.402911 31.465838 L 42.617885 31.465838 M 42.617885 31.78985 L 42.617885 31.141827 M 42.110938 30.980079 L 42.110938 30.533077 M 41.786926 30.533077 L 42.43495 30.533077 M 42.110938 31.952115 L 42.110938 32.399116 M 41.786926 32.399116 L 42.43495 32.399116 M 47.220197 31.932994 L 47.11581 31.932994 M 47.11581 32.257006 L 47.11581 31.606915 M 47.804141 31.932994 L 47.894059 31.932994 M 47.893025 32.257006 L 47.893025 31.606915 M 47.512169 31.447235 L 47.512169 31.154229 M 47.188157 31.154229 L 47.835147 31.154229 M 47.512169 32.418237 L 47.512169 32.710209 M 47.188157 32.710209 L 47.835147 32.710209 M 51.399794 29.113006 L 51.399794 28.977097 M 51.076816 28.977097 L 51.723806 28.977097 M 51.399794 30.085042 L 51.399794 30.220951 M 51.076816 30.220951 L 51.723806 30.220951 M 54.497802 29.580162 L 54.497802 29.444253 M 54.17379 29.444253 L 54.821814 29.444253 M 54.497802 30.552197 L 54.497802 30.68914 M 54.17379 30.68914 L 54.821814 30.68914 M 57.080078 27.558059 L 57.080078 27.421116 M 56.756067 27.421116 L 57.403057 27.421116 M 57.080078 28.530095 L 57.080078 28.666004 M 56.756067 28.666004 L 57.403057 28.666004 M 59.304753 26.779811 L 59.304753 26.643901 M 58.981258 26.643901 L 59.628765 26.643901 M 59.304753 27.751846 L 59.304753 27.887756 M 58.981258 27.887756 L 59.628765 27.887756 M 61.008011 26.954994 L 60.991992 26.954994 M 60.991992 27.28004 L 60.991992 26.632016 M 61.590923 26.954994 L 61.599191 26.954994 M 61.600224 27.28004 L 61.600224 26.632016 M 61.299984 26.469235 L 61.299984 26.332809 M 60.975972 26.332809 L 61.623996 26.332809 M 61.299984 27.441787 L 61.299984 27.57718 M 60.975972 27.57718 L 61.623996 27.57718 M 63.075072 25.224864 L 63.075072 24.777862 M 62.751061 24.777862 L 63.399084 24.777862 M 63.075072 26.197933 L 63.075072 26.643901 M 62.751061 26.643901 L 63.399084 26.643901 " transform="matrix(7.559041, 0, 0, 7.559041, 0.00200341, 0)"/>
<path fill-rule="nonzero" fill="rgb(23.529412%, 29.803923%, 65.882355%)" fill-opacity="1" d="M 265.445312 245.617188 L 274.257812 245.617188 L 269.851562 236.808594 Z M 313.914062 242.253906 L 322.726562 242.253906 L 318.320312 233.4375 Z M 354.734375 245.78125 L 363.5625 245.78125 L 359.140625 236.960938 Z M 384.136719 228.148438 L 392.945312 228.148438 L 388.535156 219.324219 Z M 407.546875 231.667969 L 416.363281 231.667969 L 411.953125 222.855469 Z M 427.058594 216.394531 L 435.878906 216.394531 L 431.464844 207.578125 Z M 443.882812 210.511719 L 452.707031 210.511719 L 448.289062 201.691406 Z M 458.957031 208.160156 L 467.777344 208.160156 L 463.371094 199.339844 Z M 472.382812 198.757812 L 481.195312 198.757812 L 476.789062 189.945312 Z M 472.382812 198.757812 "/>
<path fill="none" stroke-width="0.204" stroke-linecap="butt" stroke-linejoin="miter" stroke="rgb(37.254903%, 76.47059%, 19.607843%)" stroke-opacity="1" stroke-miterlimit="10" d="M 52.051952 26.547783 L 50.305802 26.547783 M 50.305802 26.870761 L 50.305802 26.223771 M 52.699976 26.547783 L 54.11798 26.547783 M 54.11798 26.870761 L 54.11798 26.223771 M 52.375964 25.899759 L 52.375964 25.770051 M 52.051952 25.770051 L 52.699976 25.770051 M 52.375964 27.194773 L 52.375964 27.324998 M 52.051952 27.324998 L 52.699976 27.324998 M 55.43108 26.643901 L 52.862757 26.643901 M 52.862757 26.967913 L 52.862757 26.31989 M 56.080138 26.643901 L 58.046946 26.643901 M 58.046946 26.967913 L 58.046946 26.31989 M 60.66798 26.177779 L 59.257211 26.177779 M 59.257211 26.501791 L 59.257211 25.853251 M 61.31497 26.177779 L 62.491128 26.177779 M 62.490094 26.501791 L 62.490094 25.853251 M 63.742216 23.377945 L 61.929921 23.377945 M 61.929921 23.701957 L 61.929921 23.053933 M 64.39024 23.377945 L 65.854753 23.377945 M 65.854753 23.701957 L 65.854753 23.053933 M 52.375964 27.194773 L 52.809013 26.547783 L 52.375964 25.899759 L 51.944982 26.547783 Z M 55.756126 27.291925 L 56.188141 26.643901 L 55.756126 25.995878 L 55.32411 26.643901 Z M 60.991992 26.825803 L 61.42194 26.177779 L 60.991992 25.529239 L 60.558942 26.178813 Z M 64.066228 24.025969 L 64.497211 23.377945 L 64.066228 22.729921 L 63.633179 23.377945 Z M 64.066228 24.025969 " transform="matrix(7.559041, 0, 0, 7.559041, 0.00200341, 0)"/>
<path fill="none" stroke-width="0.204" stroke-linecap="butt" stroke-linejoin="miter" stroke="rgb(93.333334%, 11.764706%, 13.725491%)" stroke-opacity="1" stroke-miterlimit="10" d="M 74.863005 14.320083 L 74.460962 14.320083 M 74.459929 14.644095 L 74.459929 13.995038 M 75.834007 14.320083 L 76.168871 14.320083 M 76.169905 14.644095 L 76.169905 13.995038 M 75.348248 13.833807 L 75.348248 11.535235 M 75.024236 11.535235 L 75.671743 11.535235 M 75.348248 14.804809 L 75.348248 17.103897 M 75.024236 17.103897 L 75.671743 17.103897 M 82.128209 13.407992 L 82.006769 13.407992 M 82.006769 13.732004 L 82.006769 13.08398 M 83.100244 13.407992 L 83.188094 13.407992 M 83.188094 13.732004 L 83.188094 13.08398 M 82.612934 12.92275 L 82.612934 11.262899 M 82.289956 11.261866 L 82.936946 11.261866 M 82.612934 13.893752 L 82.612934 15.555152 M 82.289956 15.555152 L 82.936946 15.555152 M 86.237009 11.101152 L 86.096966 11.101152 M 86.096966 11.425164 L 86.096966 10.77714 M 87.210078 11.101152 L 87.316015 11.101152 M 87.316015 11.425164 L 87.316015 10.77714 M 86.723802 10.615909 L 86.723802 8.519909 M 86.39979 8.519909 L 87.047814 8.519909 M 86.723802 11.587945 L 86.723802 13.683945 M 86.39979 13.683945 L 87.047814 13.683945 M 94.455128 11.227243 L 94.455128 9.426832 M 94.130082 9.426832 L 94.778106 9.426832 M 94.455128 12.199795 L 94.455128 14.000205 M 94.130082 14.000205 L 94.778106 14.000205 M 98.152067 10.760087 L 98.152067 8.27703 M 97.828055 8.275996 L 98.476078 8.275996 M 98.152067 11.732122 L 98.152067 14.217247 M 97.828055 14.217247 L 98.476078 14.217247 M 100.516785 14.695254 L 100.516785 12.195144 M 100.191222 12.195144 L 100.840796 12.195144 M 100.516785 15.667807 L 100.516785 18.167917 M 100.191222 18.167917 L 100.840796 18.167917 M 101.808181 10.371996 L 101.808181 7.622805 M 101.484169 7.622805 L 102.132193 7.622805 M 101.808181 11.344032 L 101.808181 14.093223 M 101.484169 14.093223 L 102.132193 14.093223 " transform="matrix(7.559041, 0, 0, 7.559041, 0.00200341, 0)"/>
<path fill-rule="nonzero" fill="rgb(93.333334%, 11.764706%, 13.725491%)" fill-opacity="1" d="M 565.152344 108.246094 C 565.152344 102.355469 573.96875 102.355469 573.96875 108.246094 C 573.96875 114.117188 565.152344 114.117188 565.152344 108.246094 M 620.070312 101.351562 C 620.070312 95.46875 628.882812 95.46875 628.882812 101.351562 C 628.882812 107.234375 620.070312 107.234375 620.070312 101.351562 M 651.136719 83.914062 C 651.136719 78.039062 659.953125 78.039062 659.953125 83.914062 C 659.953125 89.792969 651.136719 89.792969 651.136719 83.914062 M 709.578125 88.539062 C 709.578125 82.65625 718.398438 82.65625 718.398438 88.539062 C 718.398438 94.414062 709.578125 94.414062 709.578125 88.539062 M 737.53125 85.015625 C 737.53125 79.128906 746.335938 79.128906 746.335938 85.015625 C 746.335938 90.890625 737.53125 90.890625 737.53125 85.015625 M 755.390625 114.753906 C 755.390625 108.878906 764.214844 108.878906 764.214844 114.753906 C 764.214844 120.628906 755.390625 120.628906 755.390625 114.753906 M 765.164062 82.070312 C 765.164062 76.195312 773.972656 76.195312 773.972656 82.070312 C 773.972656 87.949219 765.164062 87.949219 765.164062 82.070312 "/>
<path fill="none" stroke-width="0.204" stroke-linecap="butt" stroke-linejoin="miter" stroke="rgb(72.549021%, 21.176471%, 63.529414%)" stroke-opacity="1" stroke-miterlimit="10" d="M 51.980122 29.392059 L 50.222086 29.392059 M 50.222086 29.716071 L 50.222086 29.068047 M 52.95009 29.392059 L 54.326753 29.392059 M 54.326753 29.716071 L 54.326753 29.068047 M 52.463814 28.906817 L 52.463814 23.924166 M 52.139802 23.922099 L 52.787826 23.922099 M 52.463814 29.877819 L 52.463814 34.860986 M 52.139802 34.860986 L 52.787826 34.860986 M 53.64979 29.206024 L 51.767214 29.206024 M 51.767214 29.530036 L 51.767214 28.882012 M 54.621826 29.206024 L 56.085822 29.206024 M 56.085822 29.530036 L 56.085822 28.882012 M 54.136067 28.719748 L 54.136067 22.915957 M 53.812055 22.915957 L 54.460078 22.915957 M 54.136067 29.691783 L 54.136067 35.495057 M 53.812055 35.495057 L 54.460078 35.495057 M 54.929818 30.944939 L 53.33198 30.944939 M 53.33198 31.268951 L 53.33198 30.620927 M 55.902887 30.944939 L 57.168962 30.944939 M 57.168962 31.268951 L 57.168962 30.620927 M 55.416094 30.458146 L 55.416094 25.967972 M 55.092082 25.966939 L 55.740106 25.966939 M 55.416094 31.431215 L 55.416094 35.921905 M 55.092082 35.921905 L 55.740106 35.921905 M 56.82893 31.295823 L 55.416094 31.295823 M 55.416094 31.619834 L 55.416094 30.971811 M 57.800966 31.295823 L 58.934232 31.295823 M 58.935783 31.619834 L 58.935783 30.971811 M 57.315207 30.810063 L 57.315207 26.567937 M 56.991195 26.567937 L 57.639218 26.567937 M 57.315207 31.783132 L 57.315207 36.024225 M 56.991195 36.024225 L 57.639218 36.024225 M 59.638067 28.863925 L 58.550792 28.863925 M 58.550792 29.187937 L 58.550792 28.539913 M 60.610102 28.863925 L 61.501005 28.863925 M 61.501005 29.187937 L 61.501005 28.539913 M 60.124859 28.379199 L 60.124859 24.819203 M 59.800848 24.817136 L 60.448871 24.817136 M 60.124859 29.350201 L 60.124859 32.912781 M 59.800848 32.911231 L 60.448871 32.911231 M 64.416078 29.392059 L 63.7448 29.392059 M 63.7448 29.716071 L 63.7448 29.06598 M 65.388114 29.392059 L 65.947771 29.392059 M 65.947771 29.716071 L 65.947771 29.06598 M 64.900804 28.90475 L 64.900804 25.717858 M 64.576792 25.717858 L 65.224816 25.717858 M 64.900804 29.876785 L 64.900804 33.064193 M 64.576792 33.064193 L 65.224816 33.064193 M 67.241234 28.477901 L 66.147242 28.477901 M 66.147242 28.801913 L 66.147242 28.15389 M 68.213786 28.477901 L 69.110891 28.477901 M 69.110891 28.801913 L 69.110891 28.15389 M 67.726994 27.992142 L 67.726994 24.029069 M 67.404015 24.029069 L 68.051005 24.029069 M 67.726994 28.965211 L 67.726994 32.927767 M 67.404015 32.927767 L 68.051005 32.927767 M 70.292216 27.07075 L 69.881905 27.07075 M 69.882938 27.394761 L 69.882938 26.747255 M 71.264769 27.07075 L 71.606867 27.07075 M 71.606867 27.394761 L 71.606867 26.747255 M 70.777976 26.58499 L 70.777976 24.69983 M 70.454998 24.69983 L 71.101988 24.69983 M 70.777976 27.558059 L 70.777976 29.443219 M 70.454998 29.443219 L 71.101988 29.443219 M 73.673929 21.944955 L 73.47394 21.944955 M 73.47394 22.27 L 73.47394 21.621976 M 74.64493 21.944955 L 74.805128 21.944955 M 74.805128 22.27 L 74.805128 21.621976 M 74.160205 21.460229 L 74.160205 16.842931 M 73.836193 16.842931 L 74.484216 16.842931 M 74.160205 22.431231 L 74.160205 27.045945 M 73.836193 27.048012 L 74.484216 27.048012 M 76.750232 24.296754 L 75.993171 24.296754 M 75.993171 24.620765 L 75.993171 23.972742 M 77.721234 24.296754 L 78.351171 24.296754 M 78.350138 24.620765 L 78.350138 23.972742 M 77.235992 23.812028 L 77.235992 20.15488 M 76.91198 20.15488 L 77.560003 20.15488 M 77.235992 24.784063 L 77.235992 28.441211 M 76.91198 28.441211 L 77.560003 28.441211 M 79.230189 22.342864 L 79.084978 22.342864 M 79.084978 22.666876 L 79.084978 22.018852 M 80.201191 22.342864 L 80.310745 22.342864 M 80.311779 22.666876 L 80.311779 22.018852 M 79.714915 21.857105 L 79.714915 21.030797 M 79.390903 21.030797 L 80.040994 21.030797 M 79.714915 22.828107 L 79.714915 23.654931 M 79.390903 23.654931 L 80.040994 23.654931 M 80.831128 23.430138 L 80.75723 23.430138 M 80.75723 23.75415 L 80.75723 23.105093 M 81.803163 23.430138 L 81.851222 23.430138 M 81.851222 23.75415 L 81.851222 23.105093 M 81.317921 22.943862 L 81.317921 21.127949 M 80.993909 21.127949 L 81.641932 21.127949 M 81.317921 23.915898 L 81.317921 25.729744 M 80.993909 25.729744 L 81.641932 25.729744 " transform="matrix(7.559041, 0, 0, 7.559041, 0.00200341, 0)"/>
<path fill-rule="nonzero" fill="rgb(72.549021%, 21.176471%, 63.529414%)" fill-opacity="1" d="M 392.664062 226.089844 L 400.496094 226.089844 L 400.496094 218.253906 L 392.664062 218.253906 Z M 405.296875 224.683594 L 413.132812 224.683594 L 413.132812 216.847656 L 405.296875 216.847656 Z M 414.96875 237.828125 L 422.808594 237.828125 L 422.808594 229.992188 L 414.976562 229.992188 Z M 429.332031 240.484375 L 437.164062 240.484375 L 437.164062 232.652344 L 429.332031 232.652344 Z M 450.558594 222.113281 L 458.40625 222.113281 L 458.40625 214.269531 L 450.558594 214.269531 Z M 486.675781 226.089844 L 494.507812 226.089844 L 494.507812 218.246094 L 486.675781 218.246094 Z M 508.039062 219.183594 L 515.867188 219.183594 L 515.867188 211.351562 L 508.039062 211.351562 Z M 531.101562 208.546875 L 538.929688 208.546875 L 538.929688 200.714844 L 531.101562 200.714844 Z M 556.648438 169.804688 L 564.496094 169.804688 L 564.496094 161.960938 L 556.648438 161.960938 Z M 579.902344 187.578125 L 587.746094 187.578125 L 587.746094 179.746094 L 579.902344 179.746094 Z M 598.648438 172.808594 L 606.488281 172.808594 L 606.488281 164.960938 L 598.65625 164.960938 Z M 610.757812 181.023438 L 618.597656 181.023438 L 618.597656 173.183594 L 610.757812 173.183594 Z M 610.757812 181.023438 "/>
<path fill="none" stroke-width="0.109" stroke-linecap="butt" stroke-linejoin="miter" stroke="rgb(100%, 100%, 100%)" stroke-opacity="1" stroke-miterlimit="10" d="M 9.45809 89.440186 L 103.578102 89.440186 L 103.578102 41.340189 L 9.457056 41.340189 Z M 9.45809 89.440186 " transform="matrix(7.559041, 0, 0, 7.559041, 0.00200341, 0)"/>
<path fill="none" stroke-width="0.176" stroke-linecap="butt" stroke-linejoin="miter" stroke="rgb(13.725491%, 12.156863%, 12.54902%)" stroke-opacity="1" stroke-miterlimit="10" d="M 9.45809 89.440186 L 103.578102 89.440186 L 103.578102 41.340189 L 9.457056 41.340189 Z M 9.45809 89.440186 " transform="matrix(7.559041, 0, 0, 7.559041, 0.00200341, 0)"/>
<path fill-rule="nonzero" fill="rgb(13.725491%, 12.156863%, 12.54902%)" fill-opacity="1" d="M 64.585938 701.402344 L 66.175781 701.402344 L 66.175781 689.277344 L 64.753906 689.277344 L 62.128906 690.691406 L 62.425781 691.941406 L 64.542969 690.820312 L 64.585938 690.820312 Z M 74.625 689.066406 C 72.160156 689.066406 70.414062 691.320312 70.414062 695.355469 C 70.453125 699.398438 72.078125 701.609375 74.421875 701.609375 C 77.121094 701.609375 78.660156 699.316406 78.660156 695.191406 C 78.660156 691.359375 77.203125 689.066406 74.625 689.066406 M 74.542969 690.3125 C 76.25 690.3125 77 692.28125 77 695.273438 C 77 698.355469 76.203125 700.316406 74.542969 700.316406 C 73.039062 700.316406 72.078125 698.523438 72.078125 695.402344 C 72.078125 692.066406 73.121094 690.3125 74.542969 690.3125 M 74.542969 690.3125 "/>
<path fill-rule="nonzero" fill="rgb(13.725491%, 12.156863%, 12.54902%)" fill-opacity="1" d="M 79.695312 692.089844 L 79.695312 692.882812 L 85.488281 692.882812 L 85.488281 692.089844 Z M 88.941406 695.800781 L 90.058594 695.800781 L 90.058594 687.296875 L 89.0625 687.296875 L 87.234375 688.304688 L 87.4375 689.179688 L 88.894531 688.386719 L 88.941406 688.386719 Z M 88.941406 695.800781 "/>
<path fill="none" stroke-width="0.176" stroke-linecap="butt" stroke-linejoin="miter" stroke="rgb(13.725491%, 12.156863%, 12.54902%)" stroke-opacity="1" stroke-miterlimit="10" d="M 17.118102 88.615945 L 17.118102 89.440186 M 21.59794 88.615945 L 21.59794 89.440186 M 24.77708 88.615945 L 24.77708 89.440186 M 27.243084 88.615945 L 27.243084 89.440186 M 29.257952 88.615945 L 29.257952 89.440186 M 30.96121 88.615945 L 30.96121 89.440186 M 32.437092 88.615945 L 32.437092 89.440186 M 33.73779 88.615945 L 33.73779 89.440186 M 34.903096 87.790154 L 34.903096 89.440186 " transform="matrix(7.559041, 0, 0, 7.559041, 0.00200341, 0)"/>
<path fill-rule="nonzero" fill="rgb(13.725491%, 12.156863%, 12.54902%)" fill-opacity="1" d="M 266.320312 701.402344 L 267.910156 701.402344 L 267.910156 689.277344 L 266.488281 689.277344 L 263.867188 690.691406 L 264.152344 691.941406 L 266.277344 690.820312 L 266.320312 690.820312 Z M 266.320312 701.402344 "/>
<path fill="none" stroke-width="0.176" stroke-linecap="butt" stroke-linejoin="miter" stroke="rgb(13.725491%, 12.156863%, 12.54902%)" stroke-opacity="1" stroke-miterlimit="10" d="M 42.562074 88.615945 L 42.562074 89.440186 M 47.042946 88.615945 L 47.042946 89.440186 M 50.222086 88.615945 L 50.222086 89.440186 M 52.68809 88.615945 L 52.68809 89.440186 M 54.701924 88.615945 L 54.701924 89.440186 M 56.405183 88.615945 L 56.405183 89.440186 M 57.881065 88.615945 L 57.881065 89.440186 M 59.18383 88.615945 L 59.18383 89.440186 M 60.348102 87.790154 L 60.348102 89.440186 " transform="matrix(7.559041, 0, 0, 7.559041, 0.00200341, 0)"/>
<path fill-rule="nonzero" fill="rgb(13.725491%, 12.156863%, 12.54902%)" fill-opacity="1" d="M 451.859375 701.402344 L 453.445312 701.402344 L 453.445312 689.277344 L 452.023438 689.277344 L 449.402344 690.691406 L 449.695312 691.941406 L 451.8125 690.820312 L 451.859375 690.820312 Z M 461.898438 689.066406 C 459.433594 689.066406 457.6875 691.320312 457.6875 695.355469 C 457.726562 699.398438 459.351562 701.609375 461.691406 701.609375 C 464.390625 701.609375 465.933594 699.316406 465.933594 695.191406 C 465.933594 691.359375 464.476562 689.066406 461.898438 689.066406 M 461.8125 690.3125 C 463.523438 690.3125 464.269531 692.28125 464.269531 695.273438 C 464.269531 698.355469 463.476562 700.316406 461.8125 700.316406 C 460.308594 700.316406 459.351562 698.523438 459.351562 695.402344 C 459.351562 692.066406 460.394531 690.3125 461.8125 690.3125 M 461.8125 690.3125 "/>
<path fill="none" stroke-width="0.176" stroke-linecap="butt" stroke-linejoin="miter" stroke="rgb(13.725491%, 12.156863%, 12.54902%)" stroke-opacity="1" stroke-miterlimit="10" d="M 68.00708 88.615945 L 68.00708 89.440186 M 72.486919 88.615945 L 72.486919 89.440186 M 75.666059 88.615945 L 75.666059 89.440186 M 78.133096 88.615945 L 78.133096 89.440186 M 80.147964 88.615945 L 80.147964 89.440186 M 81.851222 88.615945 L 81.851222 89.440186 M 83.327104 88.615945 L 83.327104 89.440186 M 84.627802 88.615945 L 84.627802 89.440186 M 85.792075 87.790154 L 85.792075 89.440186 " transform="matrix(7.559041, 0, 0, 7.559041, 0.00200341, 0)"/>
<path fill-rule="nonzero" fill="rgb(13.725491%, 12.156863%, 12.54902%)" fill-opacity="1" d="M 638.839844 701.402344 L 640.425781 701.402344 L 640.425781 689.277344 L 639.003906 689.277344 L 636.382812 690.691406 L 636.667969 691.941406 L 638.792969 690.820312 L 638.839844 690.820312 Z M 648.871094 689.066406 C 646.414062 689.066406 644.667969 691.320312 644.667969 695.355469 C 644.703125 699.398438 646.332031 701.609375 648.664062 701.609375 C 651.371094 701.609375 652.914062 699.316406 652.914062 695.191406 C 652.914062 691.359375 651.457031 689.066406 648.871094 689.066406 M 648.792969 690.3125 C 650.496094 690.3125 651.242188 692.28125 651.242188 695.273438 C 651.242188 698.355469 650.457031 700.316406 648.785156 700.316406 C 647.289062 700.316406 646.332031 698.523438 646.332031 695.402344 C 646.332031 692.066406 647.375 690.3125 648.785156 690.3125 M 648.785156 690.3125 "/>
<path fill-rule="nonzero" fill="rgb(13.725491%, 12.156863%, 12.54902%)" fill-opacity="1" d="M 659.574219 695.800781 L 659.574219 694.84375 L 655.777344 694.84375 L 655.777344 694.804688 L 656.445312 694.175781 C 658.234375 692.46875 659.363281 691.175781 659.363281 689.640625 C 659.363281 688.433594 658.613281 687.132812 656.785156 687.132812 C 655.898438 687.132812 655.042969 687.441406 654.367188 688.007812 L 654.742188 688.839844 C 655.113281 688.507812 655.777344 688.09375 656.527344 688.09375 C 657.820312 688.09375 658.234375 688.921875 658.234375 689.753906 C 658.199219 691.054688 657.238281 692.136719 655.074219 694.214844 L 654.152344 695.089844 L 654.152344 695.800781 Z M 659.574219 695.800781 "/>
<path fill="none" stroke-width="0.176" stroke-linecap="butt" stroke-linejoin="miter" stroke="rgb(13.725491%, 12.156863%, 12.54902%)" stroke-opacity="1" stroke-miterlimit="10" d="M 93.451053 88.615945 L 93.451053 89.440186 M 97.932958 88.615945 L 97.932958 89.440186 M 101.112098 88.615945 L 101.112098 89.440186 M 17.118102 41.340189 L 17.118102 42.164947 M 21.59794 41.340189 L 21.59794 42.164947 M 24.77708 41.340189 L 24.77708 42.164947 M 27.243084 41.340189 L 27.243084 42.164947 M 29.257952 41.340189 L 29.257952 42.164947 M 30.96121 41.340189 L 30.96121 42.164947 M 32.437092 41.340189 L 32.437092 42.164947 M 33.73779 41.340189 L 33.73779 42.164947 M 34.903096 41.340189 L 34.903096 42.989188 M 42.562074 41.340189 L 42.562074 42.164947 M 47.042946 41.340189 L 47.042946 42.164947 M 50.222086 41.340189 L 50.222086 42.164947 M 52.68809 41.340189 L 52.68809 42.164947 M 54.701924 41.340189 L 54.701924 42.164947 M 56.405183 41.340189 L 56.405183 42.164947 M 57.881065 41.340189 L 57.881065 42.164947 M 59.18383 41.340189 L 59.18383 42.164947 M 60.348102 41.340189 L 60.348102 42.989188 M 68.00708 41.340189 L 68.00708 42.164947 M 72.486919 41.340189 L 72.486919 42.164947 M 75.666059 41.340189 L 75.666059 42.164947 M 78.133096 41.340189 L 78.133096 42.164947 M 80.147964 41.340189 L 80.147964 42.164947 M 81.851222 41.340189 L 81.851222 42.164947 M 83.327104 41.340189 L 83.327104 42.164947 M 84.627802 41.340189 L 84.627802 42.164947 M 85.792075 41.340189 L 85.792075 42.989188 M 93.451053 41.340189 L 93.451053 42.164947 M 97.932958 41.340189 L 97.932958 42.164947 M 101.112098 41.340189 L 101.112098 42.164947 " transform="matrix(7.559041, 0, 0, 7.559041, 0.00200341, 0)"/>
<path fill-rule="nonzero" fill="rgb(13.725491%, 12.156863%, 12.54902%)" fill-opacity="1" d="M 376.609375 724.042969 L 371.316406 724.042969 L 371.316406 721.042969 L 376.941406 721.042969 L 376.941406 718.375 L 368.066406 718.375 L 368.066406 732.75 L 377.226562 732.75 L 377.226562 730.082031 L 371.316406 730.082031 L 371.316406 726.664062 L 376.609375 726.664062 Z M 379.328125 732.75 L 382.582031 732.75 L 382.582031 726.75 C 382.570312 726.464844 382.613281 726.183594 382.707031 725.917969 C 382.914062 725.335938 383.457031 724.707031 384.371094 724.707031 C 385.535156 724.707031 385.996094 725.621094 385.996094 726.960938 L 385.996094 732.75 L 389.246094 732.75 L 389.246094 726.582031 C 389.246094 723.5 387.621094 722.085938 385.496094 722.085938 C 384.214844 722.058594 383.003906 722.683594 382.285156 723.746094 L 382.210938 723.746094 L 382.082031 722.335938 L 379.246094 722.335938 C 379.292969 723.25 379.328125 724.328125 379.328125 725.660156 Z M 401.039062 728.585938 C 401.085938 728.335938 401.167969 727.828125 401.167969 727.292969 C 401.167969 724.707031 399.875 722.078125 396.496094 722.078125 C 392.867188 722.078125 391.25 725.003906 391.25 727.671875 C 391.25 730.921875 393.292969 732.960938 396.828125 732.960938 C 398.203125 732.960938 399.542969 732.75 400.585938 732.335938 L 400.164062 730.128906 C 399.234375 730.417969 398.261719 730.558594 397.289062 730.542969 C 395.746094 730.542969 394.457031 729.917969 394.335938 728.578125 Z M 394.335938 726.332031 C 394.410156 725.457031 394.953125 724.246094 396.332031 724.246094 C 397.835938 724.246094 398.167969 725.539062 398.167969 726.332031 Z M 403.09375 732.75 L 406.347656 732.75 L 406.347656 727.460938 C 406.355469 727.207031 406.382812 726.96875 406.429688 726.75 C 406.640625 725.75 407.425781 725.085938 408.636719 725.085938 C 409.015625 725.085938 409.261719 725.125 409.511719 725.160156 L 409.511719 722.121094 C 409.261719 722.085938 409.136719 722.085938 408.800781 722.085938 C 407.804688 722.085938 406.558594 722.703125 406.003906 724.246094 L 405.929688 724.246094 L 405.800781 722.335938 L 403.011719 722.335938 C 403.058594 723.210938 403.09375 724.210938 403.09375 725.75 Z M 403.09375 732.75 "/>
<path fill-rule="nonzero" fill="rgb(13.725491%, 12.156863%, 12.54902%)" fill-opacity="1" d="M 418.199219 722.34375 L 418.074219 723.550781 L 418.03125 723.550781 C 417.488281 722.71875 416.613281 722.09375 415.199219 722.09375 C 412.613281 722.09375 410.445312 724.21875 410.445312 727.59375 C 410.445312 730.59375 412.28125 732.675781 414.867188 732.675781 C 416.074219 732.675781 417.074219 732.175781 417.65625 731.300781 L 417.699219 731.300781 L 417.699219 732.011719 C 417.699219 733.929688 416.53125 734.761719 414.988281 734.761719 C 413.78125 734.761719 412.65625 734.34375 411.988281 733.96875 L 411.320312 736.425781 C 412.28125 736.929688 413.738281 737.21875 415.113281 737.21875 C 416.613281 737.21875 418.199219 736.925781 419.320312 735.925781 C 420.53125 734.886719 420.90625 733.257812 420.90625 731.257812 L 420.90625 725.425781 C 420.90625 723.84375 420.949219 723.011719 420.988281 722.34375 Z M 417.65625 728.09375 C 417.65625 728.386719 417.65625 728.71875 417.574219 728.96875 C 417.371094 729.746094 416.671875 730.292969 415.867188 730.300781 C 414.488281 730.300781 413.738281 729.050781 413.738281 727.507812 C 413.738281 725.59375 414.699219 724.550781 415.867188 724.550781 C 416.738281 724.550781 417.363281 725.136719 417.613281 725.96875 C 417.65625 726.136719 417.65625 726.339844 417.65625 726.59375 Z M 422.34375 722.34375 L 426.175781 731.84375 C 426.300781 732.136719 426.300781 732.300781 426.300781 732.382812 C 426.304688 732.566406 426.246094 732.742188 426.132812 732.886719 C 425.8125 733.425781 425.351562 733.871094 424.800781 734.175781 C 424.300781 734.46875 423.800781 734.675781 423.386719 734.71875 L 424.09375 737.46875 C 424.886719 737.382812 426.09375 737.011719 427.21875 736.050781 C 428.386719 735.011719 429.386719 733.34375 430.886719 729.175781 L 433.300781 722.34375 L 429.84375 722.34375 L 428.554688 727.46875 C 428.386719 728.050781 428.21875 728.84375 428.09375 729.382812 L 428.011719 729.382812 C 427.886719 728.84375 427.679688 728.050781 427.511719 727.46875 L 425.96875 722.34375 Z M 441.394531 718.007812 C 440.226562 719.675781 438.976562 722.507812 438.976562 726.632812 C 438.976562 730.761719 440.226562 733.59375 441.394531 735.21875 L 443.644531 735.21875 C 442.480469 733.257812 441.519531 730.425781 441.519531 726.675781 C 441.519531 722.84375 442.4375 719.96875 443.644531 718.011719 Z M 448.925781 717.59375 L 445.675781 717.59375 L 445.675781 732.761719 L 448.925781 732.761719 L 448.925781 729.507812 L 449.757812 728.46875 L 452.261719 732.761719 L 456.261719 732.761719 L 452.007812 726.550781 L 455.714844 722.34375 L 451.84375 722.34375 L 449.71875 725.46875 L 448.964844 726.71875 L 448.925781 726.71875 Z M 448.925781 717.59375 "/>
<path fill-rule="nonzero" fill="rgb(13.725491%, 12.156863%, 12.54902%)" fill-opacity="1" d="M 466.144531 728.585938 C 466.191406 728.335938 466.273438 727.828125 466.273438 727.292969 C 466.273438 724.707031 464.980469 722.078125 461.601562 722.078125 C 457.972656 722.078125 456.355469 725.003906 456.355469 727.671875 C 456.355469 730.921875 458.398438 732.960938 461.941406 732.960938 C 463.3125 732.960938 464.648438 732.75 465.691406 732.335938 L 465.277344 730.128906 C 464.347656 730.417969 463.378906 730.558594 462.402344 730.542969 C 460.855469 730.542969 459.5625 729.917969 459.441406 728.578125 Z M 459.441406 726.332031 C 459.515625 725.457031 460.066406 724.246094 461.4375 724.246094 C 462.941406 724.246094 463.273438 725.539062 463.273438 726.332031 Z M 475.496094 732.75 L 480.371094 718.375 L 476.910156 718.375 L 475.082031 724.496094 C 474.578125 726.175781 474.128906 727.871094 473.742188 729.582031 L 473.703125 729.582031 C 473.359375 727.855469 472.929688 726.144531 472.410156 724.457031 L 470.65625 718.375 L 467.121094 718.375 L 471.703125 732.75 Z M 475.496094 732.75 "/>
<path fill-rule="nonzero" fill="rgb(13.725491%, 12.156863%, 12.54902%)" fill-opacity="1" d="M 484.097656 735.207031 C 485.222656 733.542969 486.515625 730.746094 486.554688 726.628906 C 486.554688 722.457031 485.222656 719.671875 484.097656 718.003906 L 481.84375 718.003906 C 483.054688 720 484.015625 722.832031 484.015625 726.621094 C 484.015625 730.378906 483.015625 733.25 481.84375 735.207031 Z M 484.097656 735.207031 "/>
<path fill="none" stroke-width="0.176" stroke-linecap="butt" stroke-linejoin="miter" stroke="rgb(13.725491%, 12.156863%, 12.54902%)" stroke-opacity="1" stroke-miterlimit="10" d="M 10.262177 86.23314 L 9.45809 86.23314 M 11.06678 83.026095 L 9.45809 83.026095 M 10.262177 79.820083 L 9.45809 79.820083 M 11.06678 76.613038 L 9.45809 76.613038 M 10.262177 73.405992 L 9.45809 73.405992 M 11.06678 70.199981 L 9.45809 70.199981 M 10.262177 66.992935 L 9.45809 66.992935 M 11.06678 63.78589 L 9.45809 63.78589 M 10.262177 60.579878 L 9.45809 60.579878 M 11.06678 57.372833 L 9.45809 57.372833 M 10.262177 54.165787 L 9.45809 54.165787 M 11.06678 50.959775 L 9.45809 50.959775 M 10.262177 47.753247 L 9.45809 47.753247 M 11.06678 44.546201 L 9.45809 44.546201 M 11.06678 44.546201 L 9.45809 44.546201 M 103.577069 35.665073 L 102.790035 35.665073 M 103.577069 31.776931 L 102.003002 31.776931 M 103.577069 27.887756 L 102.790035 27.887756 M 103.577069 24.00013 L 102.003002 24.00013 M 103.577069 20.111988 L 102.790035 20.111988 M 103.577069 16.222813 L 102.003002 16.222813 M 103.577069 12.336221 L 102.790035 12.336221 M 103.577069 8.447045 L 102.003002 8.447045 M 103.577069 4.55787 L 102.790035 4.55787 M 103.577069 86.23314 L 102.774015 86.23314 M 103.577069 83.026095 L 101.968895 83.026095 M 103.577069 79.820083 L 102.774015 79.820083 M 103.577069 76.613038 L 101.968895 76.613038 M 103.577069 73.405992 L 102.774015 73.405992 M 103.577069 70.199981 L 101.968895 70.199981 M 103.577069 66.992935 L 102.774015 66.992935 M 103.577069 63.78589 L 101.968895 63.78589 M 103.577069 60.579878 L 102.774015 60.579878 M 103.577069 57.372833 L 101.968895 57.372833 M 103.577069 54.165787 L 102.774015 54.165787 M 103.577069 50.959775 L 101.968895 50.959775 M 103.577069 47.753247 L 102.774015 47.753247 M 103.577069 44.546201 L 101.968895 44.546201 M 103.577069 44.546201 L 101.968895 44.546201 " transform="matrix(7.559041, 0, 0, 7.559041, 0.00200341, 0)"/>
<path fill-rule="nonzero" fill="rgb(13.725491%, 12.156863%, 12.54902%)" fill-opacity="1" d="M 59.203125 669.8125 C 56.746094 669.8125 54.992188 672.066406 54.992188 676.109375 C 55.039062 680.148438 56.65625 682.363281 59 682.363281 C 61.707031 682.363281 63.25 680.0625 63.25 675.9375 C 63.25 672.113281 61.789062 669.8125 59.203125 669.8125 M 59.121094 671.070312 C 60.828125 671.070312 61.578125 673.027344 61.578125 676.027344 C 61.578125 679.113281 60.785156 681.070312 59.121094 681.070312 C 57.617188 681.070312 56.664062 679.277344 56.664062 676.15625 C 56.664062 672.816406 57.699219 671.070312 59.121094 671.070312 M 62.910156 634.398438 L 62.910156 633.023438 L 57.449219 633.023438 L 57.449219 632.988281 L 58.457031 632.109375 C 60.996094 629.652344 62.613281 627.816406 62.613281 625.609375 C 62.613281 623.863281 61.496094 622.070312 58.910156 622.070312 C 57.652344 622.050781 56.425781 622.480469 55.457031 623.28125 L 55.992188 624.445312 C 56.710938 623.820312 57.625 623.46875 58.578125 623.445312 C 60.367188 623.445312 60.949219 624.566406 60.949219 625.773438 C 60.949219 627.613281 59.535156 629.191406 56.453125 632.15625 L 55.167969 633.402344 L 55.167969 634.398438 Z M 61.789062 585.417969 L 61.789062 582.128906 L 63.496094 582.128906 L 63.496094 580.84375 L 61.789062 580.84375 L 61.789062 573.292969 L 60.035156 573.292969 L 54.625 581.046875 L 54.625 582.128906 L 60.246094 582.128906 L 60.246094 585.417969 Z M 56.285156 580.835938 L 56.285156 580.800781 L 59.242188 576.671875 C 59.582031 576.089844 59.871094 575.589844 60.246094 574.878906 L 60.285156 574.878906 C 60.253906 575.5 60.242188 576.136719 60.246094 576.792969 L 60.246094 580.835938 Z M 62.078125 525.339844 C 61.6875 525.351562 61.296875 525.394531 60.914062 525.464844 C 59.453125 525.597656 58.082031 526.230469 57.035156 527.257812 C 55.824219 528.421875 54.957031 530.296875 54.957031 532.714844 C 54.957031 535.882812 56.664062 537.878906 59.242188 537.878906 C 61.789062 537.878906 63.285156 535.835938 63.285156 533.585938 C 63.285156 531.210938 61.789062 529.667969 59.621094 529.667969 C 58.476562 529.644531 57.390625 530.175781 56.703125 531.089844 L 56.664062 531.089844 C 56.90625 528.851562 58.636719 527.0625 60.867188 526.75 C 61.328125 526.714844 61.746094 526.675781 62.078125 526.714844 Z M 59.242188 536.585938 C 57.535156 536.585938 56.621094 535.128906 56.582031 533.132812 C 56.582031 532.828125 56.648438 532.59375 56.785156 532.421875 C 57.21875 531.519531 58.121094 530.941406 59.121094 530.925781 C 60.617188 530.925781 61.617188 531.960938 61.617188 533.714844 C 61.617188 535.421875 60.664062 536.585938 59.242188 536.585938 M 59.074219 488.894531 C 61.417969 488.894531 63.203125 487.484375 63.203125 485.359375 C 63.203125 483.898438 62.289062 482.820312 60.785156 482.230469 L 60.785156 482.191406 C 62.242188 481.480469 62.75 480.355469 62.75 479.355469 C 62.75 477.816406 61.578125 476.355469 59.242188 476.355469 C 57.125 476.355469 55.492188 477.648438 55.492188 479.566406 C 55.492188 480.605469 56.082031 481.683594 57.414062 482.3125 L 57.414062 482.359375 C 55.953125 482.984375 55.039062 484.066406 55.039062 485.609375 C 55.039062 487.398438 56.535156 488.894531 59.074219 488.894531 M 59.121094 487.6875 C 57.578125 487.6875 56.664062 486.605469 56.703125 485.394531 C 56.703125 484.230469 57.457031 483.316406 58.871094 482.902344 C 60.535156 483.355469 61.539062 484.066406 61.539062 485.523438 C 61.539062 486.773438 60.617188 487.6875 59.121094 487.6875 M 59.160156 477.519531 C 60.617188 477.519531 61.199219 478.523438 61.199219 479.523438 C 61.199219 480.605469 60.414062 481.359375 59.371094 481.691406 C 57.957031 481.3125 57.035156 480.6875 57.035156 479.484375 C 57.035156 478.441406 57.789062 477.519531 59.160156 477.519531 M 59.160156 477.519531 "/>
<path fill-rule="nonzero" fill="rgb(13.725491%, 12.156863%, 12.54902%)" fill-opacity="1" d="M 49.164062 439.710938 L 50.753906 439.710938 L 50.753906 427.585938 L 49.339844 427.585938 L 46.710938 429 L 47.003906 430.253906 L 49.121094 429.121094 L 49.164062 429.121094 Z M 59.203125 427.375 C 56.746094 427.375 54.992188 429.625 54.992188 433.667969 C 55.039062 437.707031 56.65625 439.914062 59 439.914062 C 61.707031 439.914062 63.25 437.625 63.25 433.503906 C 63.25 429.664062 61.789062 427.378906 59.203125 427.378906 M 59.121094 428.636719 C 60.828125 428.636719 61.578125 430.59375 61.578125 433.59375 C 61.578125 436.679688 60.785156 438.636719 59.121094 438.636719 C 57.617188 438.636719 56.664062 436.84375 56.664062 433.722656 C 56.664062 430.382812 57.699219 428.636719 59.121094 428.636719 M 59.121094 428.636719 "/>
<path fill-rule="nonzero" fill="rgb(13.725491%, 12.156863%, 12.54902%)" fill-opacity="1" d="M 49.164062 391.957031 L 50.753906 391.957031 L 50.753906 379.84375 L 49.339844 379.84375 L 46.710938 381.253906 L 47.003906 382.511719 L 49.121094 381.382812 L 49.164062 381.382812 Z M 62.910156 391.957031 L 62.910156 390.582031 L 57.449219 390.582031 L 57.449219 390.546875 L 58.457031 389.667969 C 60.996094 387.210938 62.613281 385.375 62.613281 383.167969 C 62.613281 381.421875 61.496094 379.621094 58.910156 379.621094 C 57.652344 379.601562 56.425781 380.03125 55.457031 380.832031 L 55.992188 382.003906 C 56.710938 381.378906 57.625 381.019531 58.578125 381 C 60.367188 381 60.949219 382.132812 60.949219 383.339844 C 60.949219 385.171875 59.535156 386.75 56.453125 389.707031 L 55.167969 390.960938 L 55.167969 391.957031 Z M 62.910156 391.957031 "/>
<path fill-rule="nonzero" fill="rgb(13.725491%, 12.156863%, 12.54902%)" fill-opacity="1" d="M 49.164062 342.976562 L 50.753906 342.976562 L 50.753906 330.859375 L 49.339844 330.859375 L 46.710938 332.28125 L 47.003906 333.527344 L 49.121094 332.402344 L 49.164062 332.402344 Z M 61.789062 342.976562 L 61.789062 339.6875 L 63.496094 339.6875 L 63.496094 338.394531 L 61.789062 338.394531 L 61.789062 330.851562 L 60.035156 330.851562 L 54.625 338.601562 L 54.625 339.6875 L 60.246094 339.6875 L 60.246094 342.976562 Z M 56.285156 338.394531 L 56.285156 338.351562 L 59.242188 334.230469 C 59.582031 333.648438 59.871094 333.140625 60.246094 332.4375 L 60.285156 332.4375 C 60.253906 333.054688 60.242188 333.691406 60.246094 334.351562 L 60.246094 338.394531 Z M 56.285156 338.394531 "/>
<path fill-rule="nonzero" fill="rgb(13.725491%, 12.156863%, 12.54902%)" fill-opacity="1" d="M 17.109375 567.171875 C 17.359375 567.789062 17.605469 568.878906 17.605469 569.875 C 17.605469 572.75 15.769531 574.457031 12.898438 574.457031 C 9.683594 574.457031 8.144531 572.460938 8.144531 569.875 C 8.144531 568.710938 8.398438 567.789062 8.6875 567.171875 L 6.101562 566.496094 C 5.769531 567.042969 5.4375 568.335938 5.4375 570.042969 C 5.4375 574.375 8.1875 577.875 13.101562 577.875 C 17.183594 577.875 20.269531 575.332031 20.269531 570.328125 C 20.269531 568.582031 19.933594 567.253906 19.648438 566.664062 Z M 17.109375 567.171875 "/>
<path fill-rule="nonzero" fill="rgb(13.725491%, 12.156863%, 12.54902%)" fill-opacity="1" d="M 20.0625 564.707031 L 20.0625 561.457031 L 13.894531 561.457031 C 13.636719 561.457031 13.382812 561.414062 13.140625 561.328125 C 12.449219 561.089844 11.996094 560.429688 12.019531 559.703125 C 12.019531 558.492188 12.980469 558.039062 14.3125 558.039062 L 20.054688 558.039062 L 20.054688 554.789062 L 13.984375 554.789062 C 10.820312 554.789062 9.40625 556.375 9.40625 558.453125 C 9.4375 559.605469 9.972656 560.683594 10.863281 561.410156 L 10.863281 561.457031 L 4.894531 561.457031 L 4.894531 564.707031 Z M 20.0625 543.328125 C 19.222656 543.457031 18.375 543.511719 17.523438 543.496094 L 13.894531 543.496094 C 11.4375 543.496094 9.398438 544.574219 9.398438 548.074219 C 9.398438 549.996094 9.898438 551.410156 10.3125 552.121094 L 12.398438 551.539062 C 11.898438 550.660156 11.625 549.675781 11.605469 548.664062 C 11.605469 547.03125 12.398438 546.746094 12.980469 546.746094 L 13.101562 546.746094 C 13.101562 550.449219 14.394531 552.867188 17.109375 552.867188 C 18.769531 552.867188 20.3125 551.621094 20.3125 549.496094 C 20.3125 548.289062 19.859375 547.207031 19.027344 546.535156 L 19.027344 546.457031 L 20.0625 546.246094 Z M 16.269531 546.65625 C 16.433594 546.65625 16.648438 546.65625 16.8125 546.699219 C 17.476562 546.910156 18.023438 547.578125 18.023438 548.410156 C 18.023438 549.117188 17.605469 549.664062 16.769531 549.664062 C 15.519531 549.664062 15.105469 548.371094 15.144531 546.664062 Z M 20.0625 540.941406 L 20.0625 537.691406 L 14.773438 537.691406 C 14.535156 537.683594 14.296875 537.65625 14.0625 537.605469 C 13.0625 537.394531 12.398438 536.609375 12.398438 535.398438 C 12.398438 535.019531 12.4375 534.773438 12.472656 534.523438 L 9.4375 534.523438 C 9.398438 534.773438 9.398438 534.902344 9.398438 535.234375 C 9.398438 536.230469 10.019531 537.476562 11.558594 538.023438 L 11.558594 538.105469 L 9.648438 538.234375 L 9.648438 541.023438 C 10.523438 540.976562 11.523438 540.941406 13.0625 540.941406 Z M 20.0625 540.941406 "/>
<path fill-rule="nonzero" fill="rgb(13.725491%, 12.156863%, 12.54902%)" fill-opacity="1" d="M 9.648438 525.835938 L 10.855469 525.957031 L 10.855469 526.003906 C 9.898438 526.617188 9.34375 527.695312 9.398438 528.832031 C 9.398438 531.414062 11.515625 533.585938 14.894531 533.585938 C 17.894531 533.585938 19.980469 531.75 19.980469 529.171875 C 20.027344 528.066406 19.507812 527.011719 18.605469 526.375 L 18.605469 526.335938 L 19.316406 526.335938 C 21.226562 526.335938 22.058594 527.5 22.058594 529.042969 C 22.058594 530.25 21.644531 531.378906 21.273438 532.042969 L 23.730469 532.707031 C 24.230469 531.75 24.523438 530.289062 24.523438 528.914062 C 24.523438 527.417969 24.230469 525.835938 23.230469 524.710938 C 22.1875 523.5 20.5625 523.125 18.558594 523.125 L 12.730469 523.125 C 11.144531 523.125 10.3125 523.085938 9.648438 523.046875 Z M 15.390625 526.375 C 15.695312 526.375 16.019531 526.375 16.269531 526.457031 C 17.023438 526.667969 17.605469 527.332031 17.605469 528.164062 C 17.605469 529.542969 16.351562 530.289062 14.808594 530.289062 C 12.898438 530.289062 11.855469 529.335938 11.855469 528.171875 C 11.855469 527.296875 12.4375 526.660156 13.269531 526.417969 C 13.433594 526.382812 13.644531 526.367188 13.894531 526.375 Z M 15.898438 511.308594 C 15.648438 511.269531 15.144531 511.1875 14.605469 511.1875 C 12.019531 511.1875 9.390625 512.472656 9.390625 515.851562 C 9.390625 519.480469 12.316406 521.105469 14.984375 521.105469 C 18.234375 521.105469 20.273438 519.0625 20.273438 515.519531 C 20.273438 514.144531 20.0625 512.8125 19.648438 511.769531 L 17.441406 512.183594 C 17.726562 513.0625 17.855469 513.976562 17.855469 515.058594 C 17.855469 516.609375 17.230469 517.890625 15.890625 518.019531 Z M 13.644531 518.019531 C 12.769531 517.9375 11.558594 517.394531 11.558594 516.019531 C 11.558594 514.519531 12.851562 514.1875 13.644531 514.1875 Z M 9.648438 506.117188 L 19.148438 502.28125 C 19.4375 502.15625 19.601562 502.15625 19.6875 502.15625 C 19.851562 502.148438 20.019531 502.203125 20.183594 502.320312 C 20.691406 502.617188 21.226562 503.152344 21.476562 503.660156 C 21.753906 504.089844 21.9375 504.570312 22.023438 505.074219 L 24.773438 504.363281 C 24.609375 503.207031 24.117188 502.121094 23.351562 501.238281 C 22.316406 500.074219 20.644531 499.070312 16.472656 497.574219 L 9.648438 495.15625 L 9.648438 498.617188 L 14.773438 499.902344 C 15.355469 500.074219 16.148438 500.242188 16.683594 500.363281 L 16.683594 500.445312 C 16.042969 500.597656 15.40625 500.765625 14.773438 500.945312 L 9.648438 502.488281 Z M 20.0625 490.535156 L 9.648438 490.535156 L 9.648438 493.785156 L 20.0625 493.785156 Z M 5.105469 492.160156 C 5.105469 493.203125 5.769531 493.871094 6.730469 493.871094 C 7.644531 493.871094 8.355469 493.203125 8.355469 492.160156 C 8.355469 491.125 7.644531 490.414062 6.730469 490.414062 C 5.769531 490.453125 5.105469 491.125 5.105469 492.160156 M 15.898438 478.738281 C 15.472656 478.65625 15.039062 478.613281 14.605469 478.609375 C 12.019531 478.609375 9.390625 479.902344 9.390625 483.28125 C 9.390625 486.90625 12.316406 488.527344 14.984375 488.527344 C 18.234375 488.527344 20.273438 486.484375 20.273438 482.945312 C 20.273438 481.570312 20.0625 480.234375 19.648438 479.199219 L 17.441406 479.613281 C 17.726562 480.484375 17.855469 481.40625 17.855469 482.484375 C 17.855469 484.027344 17.230469 485.320312 15.890625 485.441406 Z M 13.644531 485.441406 C 12.769531 485.367188 11.558594 484.820312 11.558594 483.445312 C 11.558594 481.941406 12.851562 481.609375 13.644531 481.609375 Z M 20.0625 476.679688 L 20.0625 473.429688 L 4.894531 473.429688 L 4.894531 476.679688 Z M 4.894531 463.9375 L 10.5625 463.9375 L 10.5625 463.980469 C 9.851562 464.433594 9.398438 465.441406 9.398438 466.734375 C 9.398438 469.226562 11.4375 471.441406 14.9375 471.398438 C 18.1875 471.398438 20.3125 469.394531 20.3125 466.9375 C 20.339844 465.609375 19.65625 464.371094 18.523438 463.6875 L 18.523438 463.648438 L 20.0625 463.484375 L 20.0625 460.609375 C 19.351562 460.648438 18.097656 460.6875 16.933594 460.6875 L 4.894531 460.6875 Z M 15.398438 463.9375 C 15.6875 463.9375 15.9375 463.9375 16.148438 464.019531 C 17.0625 464.230469 17.734375 464.941406 17.734375 465.894531 C 17.734375 467.230469 16.601562 468.109375 14.855469 468.109375 C 13.191406 468.109375 11.855469 467.351562 11.855469 465.855469 C 11.855469 464.859375 12.609375 464.191406 13.480469 463.980469 C 13.644531 463.9375 13.894531 463.9375 14.0625 463.9375 Z M 5.316406 451.371094 C 6.980469 452.535156 9.8125 453.792969 13.933594 453.792969 C 18.0625 453.792969 20.894531 452.535156 22.519531 451.371094 L 22.519531 449.121094 C 20.5625 450.292969 17.726562 451.253906 13.980469 451.253906 C 10.144531 451.253906 7.273438 450.328125 5.316406 449.121094 Z M 15.898438 437.878906 C 15.472656 437.804688 15.039062 437.761719 14.605469 437.757812 C 12.019531 437.757812 9.390625 439.042969 9.390625 442.421875 C 9.390625 446.050781 12.316406 447.675781 14.984375 447.675781 C 18.234375 447.675781 20.273438 445.636719 20.273438 442.089844 C 20.273438 440.714844 20.0625 439.382812 19.648438 438.339844 L 17.441406 438.757812 C 17.726562 439.632812 17.855469 440.546875 17.855469 441.628906 C 17.855469 443.171875 17.230469 444.464844 15.890625 444.59375 Z M 13.644531 444.59375 C 12.769531 444.507812 11.558594 443.964844 11.558594 442.589844 C 11.558594 441.09375 12.851562 440.761719 13.644531 440.761719 Z M 20.894531 434.621094 L 5.445312 430.078125 L 5.445312 432.195312 L 20.902344 436.785156 Z M 4.894531 425.511719 L 4.894531 428.765625 L 20.0625 428.765625 L 20.0625 425.511719 L 16.8125 425.511719 L 15.769531 424.683594 L 20.0625 422.1875 L 20.0625 418.179688 L 13.859375 422.429688 L 9.648438 418.726562 L 9.648438 422.601562 L 12.769531 424.71875 L 14.023438 425.476562 L 14.023438 425.511719 Z M 4.894531 425.511719 "/>
<path fill-rule="nonzero" fill="rgb(13.725491%, 12.156863%, 12.54902%)" fill-opacity="1" d="M 15.898438 408.292969 C 15.472656 408.214844 15.039062 408.171875 14.605469 408.164062 C 12.019531 408.164062 9.390625 409.457031 9.390625 412.835938 C 9.390625 416.464844 12.316406 418.082031 14.984375 418.082031 C 18.234375 418.082031 20.273438 416.042969 20.273438 412.503906 C 20.273438 411.128906 20.0625 409.789062 19.648438 408.753906 L 17.441406 409.171875 C 17.726562 410.039062 17.855469 410.960938 17.855469 412.042969 C 17.855469 413.585938 17.230469 414.878906 15.890625 415 Z M 13.644531 415 C 12.769531 414.921875 11.558594 414.378906 11.558594 413.003906 C 11.558594 411.5 12.851562 411.167969 13.644531 411.167969 Z M 20.0625 398.945312 L 5.6875 394.066406 L 5.6875 397.53125 L 11.808594 399.367188 C 13.488281 399.871094 15.183594 400.3125 16.894531 400.695312 L 16.894531 400.734375 C 15.167969 401.082031 13.457031 401.511719 11.769531 402.027344 L 5.6875 403.78125 L 5.6875 407.320312 L 20.0625 402.738281 Z M 20.0625 398.945312 "/>
<path fill-rule="nonzero" fill="rgb(13.725491%, 12.156863%, 12.54902%)" fill-opacity="1" d="M 22.527344 390.339844 C 20.855469 389.214844 18.066406 387.921875 13.941406 387.882812 C 9.769531 387.882812 6.988281 389.214844 5.316406 390.339844 L 5.316406 392.59375 C 7.3125 391.382812 10.144531 390.425781 13.933594 390.425781 C 17.691406 390.425781 20.5625 391.421875 22.519531 392.59375 Z M 22.527344 390.339844 "/>
<path fill="none" stroke-width="0.204" stroke-linecap="butt" stroke-linejoin="miter" stroke="rgb(23.529412%, 29.803923%, 65.882355%)" stroke-opacity="1" stroke-miterlimit="10" d="M 30.657869 63.001957 L 28.678141 63.001957 M 28.678141 63.325969 L 28.678141 62.676911 M 31.242847 63.001957 L 32.833968 63.001957 M 32.833968 63.325969 L 32.833968 62.676911 M 30.949842 62.516197 L 30.949842 55.305771 M 30.626863 55.305771 L 31.273853 55.305771 M 30.949842 63.487199 L 30.949842 70.697109 M 30.626863 70.697109 L 31.273853 70.697109 M 35.664808 65.709807 L 33.980153 65.709807 M 33.98222 66.033819 L 33.98222 65.385795 M 36.248236 65.709807 L 37.6311 65.709807 M 37.6311 66.033819 L 37.6311 65.385795 M 35.95678 65.225081 L 35.95678 59.618178 M 35.632252 59.618178 L 36.280792 59.618178 M 35.95678 66.196083 L 35.95678 71.80402 M 35.632252 71.80402 L 36.280792 71.80402 M 38.868753 57.052955 L 38.219179 57.052955 M 38.220212 57.376967 L 38.220212 56.727909 M 39.452181 57.052955 L 40.027857 57.052955 M 40.027857 57.376967 L 40.027857 56.727909 M 39.160208 56.567195 L 39.160208 52.24187 M 38.836197 52.24187 L 39.485254 52.24187 M 39.160208 57.538197 L 39.160208 61.863006 M 38.836197 61.863006 L 39.485254 61.863006 M 42.271136 63.78589 L 41.995183 63.78589 M 41.995183 64.109902 L 41.995183 63.461878 M 42.854047 63.78589 L 43.102094 63.78589 M 43.102094 64.109902 L 43.102094 63.461878 M 42.562074 63.30013 L 42.562074 60.899756 M 42.238063 60.899756 L 42.88712 60.899756 M 42.562074 64.273199 L 42.562074 66.672024 M 42.238063 66.672024 L 42.88712 66.672024 M 45.869889 65.389929 L 45.756201 65.389929 M 45.756201 65.713941 L 45.756201 65.066951 M 46.4528 65.389929 L 46.553053 65.389929 M 46.554086 65.713941 L 46.554086 65.066951 M 46.160828 64.90417 L 46.160828 63.78589 M 45.836816 63.78589 L 46.48484 63.78589 M 46.160828 65.875172 L 46.160828 66.992935 M 45.836816 66.992935 L 46.48484 66.992935 M 49.827794 65.544959 L 49.827794 65.069018 M 49.503782 65.070052 L 50.151806 65.070052 M 49.827794 66.518028 L 49.827794 66.992935 M 49.503782 66.992935 L 50.151806 66.992935 M 53.840994 65.86587 L 53.840994 65.709807 M 53.516982 65.709807 L 54.165005 65.709807 M 53.840994 66.838939 L 53.840994 66.992935 M 53.516982 66.992935 L 54.165005 66.992935 " transform="matrix(7.559041, 0, 0, 7.559041, 0.00200341, 0)"/>
<path fill-rule="nonzero" fill="rgb(23.529412%, 29.803923%, 65.882355%)" fill-opacity="1" d="M 229.546875 480.640625 L 238.359375 480.640625 L 233.953125 471.820312 Z M 267.378906 501.117188 L 276.203125 501.117188 L 271.789062 492.296875 Z M 291.605469 435.671875 L 300.421875 435.671875 L 296.015625 426.851562 Z M 317.316406 486.566406 L 326.144531 486.566406 L 321.738281 477.753906 Z M 344.527344 498.691406 L 353.34375 498.691406 L 348.933594 489.871094 Z M 372.246094 503.53125 L 381.070312 503.53125 L 376.652344 494.722656 Z M 402.582031 505.964844 L 411.394531 505.964844 L 406.988281 497.144531 Z M 433.332031 515.664062 L 442.144531 515.664062 L 437.738281 506.832031 Z M 463.582031 537.960938 L 472.402344 537.960938 L 467.980469 529.140625 Z M 493.894531 552.503906 L 502.714844 552.503906 L 498.308594 543.683594 Z M 525.582031 568.5 L 534.402344 568.5 L 529.996094 559.679688 Z M 525.582031 568.5 "/>
<path fill="none" stroke-width="0.204" stroke-linecap="butt" stroke-linejoin="miter" stroke="rgb(37.254903%, 76.47059%, 19.607843%)" stroke-opacity="1" stroke-miterlimit="10" d="M 52.051952 70.433042 L 50.305802 70.433042 M 50.305802 70.75602 L 50.305802 70.10903 M 52.699976 70.433042 L 54.11798 70.433042 M 54.11798 70.75602 L 54.11798 70.10903 M 52.375964 69.783984 L 52.375964 69.468758 M 52.051952 69.469791 L 52.699976 69.469791 M 52.375964 71.080032 L 52.375964 71.394225 M 52.051952 71.394225 L 52.699976 71.394225 M 55.43108 70.841803 L 52.862757 70.841803 M 52.862757 71.165815 L 52.862757 70.517791 M 56.080138 70.841803 L 58.046946 70.841803 M 58.046946 71.165815 L 58.046946 70.517791 M 60.66798 71.162197 L 59.257211 71.162197 M 59.257211 71.485176 L 59.257211 70.838186 M 61.31497 71.162197 L 62.491128 71.162197 M 62.490094 71.485176 L 62.490094 70.838186 M 63.742216 69.559192 L 61.929921 69.559192 M 61.929921 69.883203 L 61.929921 69.23518 M 64.39024 69.559192 L 65.854753 69.559192 M 65.854753 69.883203 L 65.854753 69.23518 M 52.375964 71.080032 L 52.809013 70.433042 L 52.375964 69.782951 L 51.944982 70.433042 Z M 55.756126 71.489827 L 56.188141 70.841803 L 55.756126 70.192229 L 55.32411 70.841803 Z M 60.991992 71.810221 L 61.42194 71.162197 L 60.991992 70.514174 L 60.558942 71.162197 Z M 64.066228 70.207215 L 64.497211 69.559192 L 64.066228 68.911168 L 63.633179 69.559192 Z M 64.066228 70.207215 " transform="matrix(7.559041, 0, 0, 7.559041, 0.00200341, 0)"/>
<path fill="none" stroke-width="0.204" stroke-linecap="butt" stroke-linejoin="miter" stroke="rgb(93.333334%, 11.764706%, 13.725491%)" stroke-opacity="1" stroke-miterlimit="10" d="M 74.863005 75.208986 L 74.460962 75.208986 M 74.459929 75.532998 L 74.459929 74.884975 M 75.834007 75.208986 L 76.168871 75.208986 M 76.169905 75.532998 L 76.169905 74.884975 M 75.348248 74.722194 L 75.348248 73.605981 M 75.024236 73.605981 L 75.671743 73.605981 M 75.348248 75.694746 L 75.348248 76.813026 M 75.024236 76.813026 L 75.671743 76.813026 M 82.128209 78.730225 L 82.006769 78.730225 M 82.006769 79.054237 L 82.006769 78.406213 M 83.100244 78.730225 L 83.188094 78.730225 M 83.188094 79.054237 L 83.188094 78.406213 M 82.612934 78.242915 L 82.612934 77.959211 M 82.289956 77.960245 L 82.936946 77.960245 M 82.612934 79.215984 L 82.612934 79.499172 M 82.289956 79.499172 L 82.936946 79.499172 M 86.259747 80.718221 L 86.119187 80.718221 M 86.119187 81.042233 L 86.119187 80.394209 M 87.230232 80.718221 L 87.337203 80.718221 M 87.337203 81.042233 L 87.337203 80.394209 M 86.743956 80.231945 L 86.743956 79.948241 M 86.419944 79.948241 L 87.067968 79.948241 M 86.743956 81.202947 L 86.743956 81.487168 M 86.419944 81.487168 L 87.067968 81.487168 " transform="matrix(7.559041, 0, 0, 7.559041, 0.00200341, 0)"/>
<path fill-rule="nonzero" fill="rgb(93.333334%, 11.764706%, 13.725491%)" fill-opacity="1" d="M 565.152344 568.5 C 565.152344 562.625 573.96875 562.625 573.96875 568.5 C 573.96875 574.382812 565.152344 574.382812 565.152344 568.5 M 620.070312 595.117188 C 620.070312 589.242188 628.882812 589.242188 628.882812 595.117188 C 628.882812 600.996094 620.070312 600.996094 620.070312 595.117188 M 651.296875 610.152344 C 651.296875 604.261719 660.109375 604.261719 660.109375 610.152344 C 660.109375 616.023438 651.296875 616.023438 651.296875 610.152344 M 709.578125 635.59375 C 709.578125 629.722656 718.398438 629.722656 718.398438 635.59375 C 718.398438 641.476562 709.578125 641.476562 709.578125 635.59375 M 737.53125 645.535156 C 737.53125 639.660156 746.335938 639.660156 746.335938 645.535156 C 746.335938 651.40625 737.53125 651.40625 737.53125 645.535156 M 755.390625 649.171875 C 755.390625 643.296875 764.214844 643.296875 764.214844 649.171875 C 764.214844 655.042969 755.390625 655.042969 755.390625 649.171875 M 765.164062 649.171875 C 765.164062 643.296875 773.972656 643.296875 773.972656 649.171875 C 773.972656 655.042969 765.164062 655.042969 765.164062 649.171875 "/>
<path fill="none" stroke-width="0.204" stroke-linecap="butt" stroke-linejoin="miter" stroke="rgb(43.137255%, 25.882354%, 64.705884%)" stroke-opacity="1" stroke-miterlimit="10" d="M 54.461112 67.058048 L 53.965017 67.058048 M 53.965017 67.382059 L 53.965017 66.734036 M 55.23781 67.058048 L 55.667242 67.058048 M 55.667242 67.382059 L 55.667242 66.734036 M 54.848169 66.410024 L 54.848169 66.233807 M 54.524157 66.233807 L 55.174248 66.233807 M 54.848169 67.705038 L 54.848169 67.881771 M 54.524157 67.881771 L 55.174248 67.881771 M 51.496946 67.024975 L 51.259751 67.024975 M 51.260784 67.35002 L 51.260784 66.699929 M 52.274161 67.024975 L 52.477767 67.024975 M 52.477767 67.35002 L 52.477767 66.699929 M 51.88607 66.376951 L 51.88607 66.151124 M 51.562059 66.151124 L 52.211116 66.151124 M 51.88607 67.674032 L 51.88607 67.899858 M 51.562059 67.899858 L 52.211116 67.899858 M 48.700212 65.935117 L 48.343128 65.935117 M 48.343128 66.259128 L 48.343128 65.611105 M 49.476911 65.935117 L 49.78697 65.935117 M 49.788003 66.259128 L 49.788003 65.611105 M 49.087786 65.287093 L 49.087786 65.040079 M 48.763775 65.040079 L 49.411798 65.040079 M 49.087786 66.584174 L 49.087786 66.830154 M 48.763775 66.830154 L 49.411798 66.830154 M 46.467786 67.121093 L 46.016134 67.121093 M 46.016134 67.445105 L 46.016134 66.797081 M 47.246035 67.121093 L 47.637743 67.121093 M 47.637743 67.445105 L 47.637743 66.797081 M 46.856911 66.473069 L 46.856911 66.278249 M 46.532899 66.278249 L 47.180923 66.278249 M 46.856911 67.769117 L 46.856911 67.966004 M 46.532899 67.966004 L 47.180923 67.966004 M 42.766197 67.376892 L 41.381782 67.376892 M 41.381782 67.702971 L 41.381782 67.05288 M 43.542895 67.376892 L 44.680812 67.376892 M 44.680812 67.702971 L 44.680812 67.05288 M 43.153771 66.729902 L 43.153771 66.553168 M 42.829759 66.553168 L 43.477782 66.553168 M 43.153771 68.026982 L 43.153771 68.203199 M 42.829759 68.203199 L 43.477782 68.203199 M 39.777226 67.345886 L 38.973139 67.345886 M 38.973139 67.669898 L 38.973139 67.021874 M 40.553924 67.345886 L 41.242256 67.345886 M 41.242256 67.669898 L 41.242256 67.021874 M 40.1648 66.697862 L 40.1648 66.32114 M 39.840788 66.320107 L 40.488812 66.320107 M 40.1648 67.992876 L 40.1648 68.371148 M 39.840788 68.371148 L 40.488812 68.371148 M 34.178074 69.46204 L 32.913033 69.46204 M 32.913033 69.786052 L 32.913033 69.139061 M 34.954773 69.46204 L 36.003806 69.46204 M 36.00484 69.786052 L 36.00484 69.139061 M 34.566165 68.81505 L 34.566165 68.468817 M 34.243187 68.468817 L 34.890177 68.468817 M 34.566165 70.110063 L 34.566165 70.455779 M 34.243187 70.455779 L 34.890177 70.455779 M 33.711952 69.174201 L 32.504788 69.174201 M 32.504788 69.498213 L 32.504788 68.849156 M 34.490201 69.174201 L 35.494792 69.174201 M 35.494792 69.498213 L 35.494792 68.849156 M 34.100043 68.525144 L 34.100043 68.151006 M 33.777064 68.149973 L 34.424055 68.149973 M 34.100043 69.822225 L 34.100043 70.19688 M 33.777064 70.19688 L 34.424055 70.19688 M 25.491767 74.753199 L 23.351842 74.753199 M 23.351842 75.078245 L 23.351842 74.428154 M 26.270015 74.753199 L 27.938133 74.753199 M 27.938133 75.078245 L 27.938133 74.428154 M 25.879857 74.105176 L 25.879857 72.976044 M 25.556879 72.976044 L 26.203869 72.976044 M 25.879857 75.402257 L 25.879857 76.529839 M 25.556879 76.529839 L 26.203869 76.529839 M 20.953017 78.129227 L 17.980066 78.129227 M 17.979033 78.453239 L 17.979033 77.803148 M 21.730749 78.129227 L 23.917183 78.129227 M 23.917183 78.453239 L 23.917183 77.803148 M 21.343175 77.48017 L 21.343175 76.172754 M 21.017096 76.172754 L 21.667187 76.172754 M 21.343175 78.777251 L 21.343175 80.083117 M 21.017096 80.083117 L 21.667187 80.083117 " transform="matrix(7.559041, 0, 0, 7.559041, 0.00200341, 0)"/>
<path fill-rule="nonzero" fill="rgb(43.137255%, 25.882354%, 64.705884%)" fill-opacity="1" d="M 414.601562 511.785156 L 419.511719 501.996094 L 409.703125 501.996094 Z M 392.203125 511.542969 L 397.117188 501.746094 L 387.3125 501.746094 Z M 371.058594 503.304688 L 375.964844 493.507812 L 366.160156 493.507812 Z M 354.195312 512.261719 L 359.101562 502.472656 L 349.296875 502.472656 Z M 326.203125 514.210938 L 331.101562 504.40625 L 321.304688 504.40625 Z M 303.609375 513.960938 L 308.507812 504.171875 L 298.710938 504.171875 Z M 261.289062 529.964844 L 266.1875 520.167969 L 256.390625 520.167969 Z M 257.765625 527.789062 L 262.664062 517.984375 L 252.875 517.984375 Z M 195.628906 569.953125 L 200.527344 560.164062 L 190.738281 560.164062 Z M 161.328125 595.472656 L 166.226562 585.667969 L 156.421875 585.667969 Z M 161.328125 595.472656 "/>
<path fill="none" stroke-width="0.204" stroke-linecap="butt" stroke-linejoin="miter" stroke="rgb(72.549021%, 21.176471%, 63.529414%)" stroke-opacity="1" stroke-miterlimit="10" d="M 49.45624 60.635172 L 47.042946 60.635172 M 47.042946 60.959184 L 47.042946 60.309093 M 50.428792 60.635172 L 52.236954 60.635172 M 52.236954 60.959184 L 52.236954 60.309093 M 49.943033 60.147862 L 49.943033 55.530048 M 49.619021 55.530048 L 50.266011 55.530048 M 49.943033 61.119898 L 49.943033 65.738229 M 49.619021 65.738229 L 50.266011 65.738229 M 51.980122 65.935117 L 50.222086 65.935117 M 50.222086 66.259128 L 50.222086 65.611105 M 52.95009 65.935117 L 54.326753 65.935117 M 54.326753 66.259128 L 54.326753 65.611105 M 52.463814 65.449874 L 52.463814 61.036182 M 52.139802 61.036182 L 52.787826 61.036182 M 52.463814 66.420876 L 52.463814 70.834052 M 52.139802 70.834052 L 52.787826 70.834052 M 54.929818 68.836754 L 53.33198 68.836754 M 53.33198 69.160249 L 53.33198 68.512742 M 55.902887 68.836754 L 57.168962 68.836754 M 57.168962 69.160249 L 57.168962 68.512742 M 55.416094 68.349961 L 55.416094 64.796166 M 55.092082 64.796166 L 55.740106 64.796166 M 55.416094 69.32303 L 55.416094 72.876825 M 55.092082 72.876825 L 55.740106 72.876825 M 56.82893 72.444809 L 55.416094 72.444809 M 55.416094 72.767787 L 55.416094 72.120797 M 57.800966 72.444809 L 58.934232 72.444809 M 58.935783 72.767787 L 58.935783 72.120797 M 57.315207 71.958016 L 57.315207 69.367988 M 56.991195 69.369022 L 57.639218 69.369022 M 57.315207 72.931085 L 57.315207 75.521113 M 56.991195 75.520079 L 57.639218 75.520079 M 59.638067 71.353917 L 58.550792 71.353917 M 58.550792 71.677929 L 58.550792 71.030939 M 60.610102 71.353917 L 61.501005 71.353917 M 61.501005 71.677929 L 61.501005 71.030939 M 60.124859 70.868158 L 60.124859 69.257917 M 59.800848 69.258951 L 60.448871 69.258951 M 60.124859 71.840194 L 60.124859 73.449917 M 59.800848 73.449917 L 60.448871 73.449917 M 64.370086 74.412134 L 63.695191 74.412134 M 63.695191 74.738213 L 63.695191 74.088123 M 65.342122 74.412134 L 65.906946 74.412134 M 65.906946 74.738213 L 65.906946 74.088123 M 64.855846 73.926892 L 64.855846 72.133199 M 64.531834 72.133199 L 65.178824 72.133199 M 64.855846 74.898927 L 64.855846 76.692103 M 64.531834 76.692103 L 65.178824 76.692103 M 70.292216 76.19084 L 69.881905 76.19084 M 69.882938 76.514852 L 69.882938 75.867862 M 71.264769 76.19084 L 71.606867 76.19084 M 71.606867 76.514852 L 71.606867 75.867862 M 70.777976 75.706115 L 70.777976 74.16202 M 70.454998 74.16202 L 71.101988 74.16202 M 70.777976 76.67815 L 70.777976 78.222762 M 70.454998 78.222762 L 71.101988 78.222762 M 79.230189 78.698186 L 79.084978 78.698186 M 79.084978 79.022198 L 79.084978 78.374174 M 80.201191 78.698186 L 80.310745 78.698186 M 80.311779 79.022198 L 80.311779 78.374174 M 79.714915 78.21191 L 79.714915 77.380951 M 79.390903 77.379917 L 80.040994 77.379917 M 79.714915 79.182912 L 79.714915 80.01387 M 79.390903 80.014904 L 80.040994 80.014904 M 80.831128 79.582888 L 80.75723 79.582888 M 80.75723 79.907933 L 80.75723 79.257842 M 81.803163 79.582888 L 81.851222 79.582888 M 81.851222 79.907933 L 81.851222 79.257842 M 81.317921 79.098162 L 81.317921 78.167984 M 80.993909 78.169018 L 81.641932 78.169018 M 81.317921 80.070198 L 81.317921 80.997791 M 80.993909 80.997791 L 81.641932 80.997791 " transform="matrix(7.559041, 0, 0, 7.559041, 0.00200341, 0)"/>
<path fill-rule="nonzero" fill="rgb(72.549021%, 21.176471%, 63.529414%)" fill-opacity="1" d="M 373.601562 462.242188 L 381.429688 462.242188 L 381.429688 454.410156 L 373.601562 454.410156 Z M 392.664062 502.3125 L 400.496094 502.3125 L 400.496094 494.480469 L 392.664062 494.480469 Z M 414.976562 524.257812 L 422.808594 524.257812 L 422.808594 516.417969 L 414.976562 516.417969 Z M 429.332031 551.523438 L 437.164062 551.523438 L 437.164062 543.691406 L 429.332031 543.691406 Z M 450.558594 543.285156 L 458.40625 543.285156 L 458.40625 535.453125 L 450.558594 535.453125 Z M 486.328125 566.414062 L 494.175781 566.414062 L 494.175781 558.566406 L 486.328125 558.566406 Z M 531.101562 579.863281 L 538.929688 579.863281 L 538.929688 572.015625 L 531.101562 572.015625 Z M 598.65625 598.796875 L 606.488281 598.796875 L 606.488281 590.964844 L 598.65625 590.964844 Z M 610.75 605.496094 L 618.605469 605.496094 L 618.605469 597.648438 L 610.757812 597.648438 Z M 610.75 605.496094 "/>
</svg>
